{
	"minBrightnessLevel": [15,35,67,89],
	"AlgoMapLcmBrLevel": {
		"sectionone": [0.16,3.84],
		"sectiontwo": [0.16,3.84],
		"sectionthree": [0.1455555556,8.187777778],
		"sectionfour": [0.03933333333,326.9606667],
		"sectionfive": [4.833333333,-21250.83333],
		"sectionsix": [1.205882353,-4836.617647],
		"sectionseven": [0.6859504132,-2466.247934],
		"sectioneight": [0.624,-2168.824],
		"sectionnight": [0.7149122807,-2662.114035],
		"sectionten": [15.6,-86822.4],
		"sectioneleven": [0.5065445026,-1408.53534],
		"sectiontwelve": [0.5152941176,-1464.734118],
		"sectionthirteen": [0.3988245172,-667.1502939],
		"sectionfourteen": [0.1100123609,1654.61063],
		"sectionfifteen": [0.1360589812,1424.150134],
		"sectionsixteen": [0.2338642121,412.8440472],
		"sectionkeypoint": [151,301,3001,4501,4525,4559,4801,5426,5654,5659,6423,6848,8039,8848,10340]
	},
	"LcmMapAlgoBrLevel": [
		[1,1],
		[2,1],
		[3,1],
		[4,1],
		[5,10],
		[6,16],
		[7,22],
		[8,29],
		[9,35],
		[10,41],
		[11,47],
		[12,54],
		[13,60],
		[14,66],
		[15,72],
		[16,79],
		[17,85],
		[18,91],
		[19,97],
		[20,104],
		[21,110],
		[22,116],
		[23,122],
		[24,129],
		[25,135],
		[26,141],
		[27,148],
		[28,154],
		[29,160],
		[30,166],
		[31,173],
		[32,179],
		[33,185],
		[34,191],
		[35,198],
		[36,204],
		[37,210],
		[38,216],
		[39,223],
		[40,229],
		[41,235],
		[42,241],
		[43,248],
		[44,254],
		[45,260],
		[46,266],
		[47,273],
		[48,279],
		[49,285],
		[50,291],
		[51,298],
		[52,304],
		[53,311],
		[54,318],
		[55,325],
		[56,332],
		[57,339],
		[58,346],
		[59,352],
		[60,359],
		[61,366],
		[62,373],
		[63,380],
		[64,387],
		[65,394],
		[66,401],
		[67,407],
		[68,414],
		[69,421],
		[70,428],
		[71,435],
		[72,442],
		[73,449],
		[74,456],
		[75,462],
		[76,469],
		[77,476],
		[78,483],
		[79,490],
		[80,497],
		[81,504],
		[82,510],
		[83,517],
		[84,524],
		[85,531],
		[86,538],
		[87,545],
		[88,552],
		[89,559],
		[90,565],
		[91,572],
		[92,579],
		[93,586],
		[94,593],
		[95,600],
		[96,607],
		[97,614],
		[98,620],
		[99,627],
		[100,634],
		[101,641],
		[102,648],
		[103,655],
		[104,662],
		[105,668],
		[106,675],
		[107,682],
		[108,689],
		[109,696],
		[110,703],
		[111,710],
		[112,717],
		[113,723],
		[114,730],
		[115,737],
		[116,744],
		[117,751],
		[118,758],
		[119,765],
		[120,772],
		[121,778],
		[122,785],
		[123,792],
		[124,799],
		[125,806],
		[126,813],
		[127,820],
		[128,827],
		[129,833],
		[130,840],
		[131,847],
		[132,854],
		[133,861],
		[134,868],
		[135,875],
		[136,881],
		[137,888],
		[138,895],
		[139,902],
		[140,909],
		[141,916],
		[142,923],
		[143,930],
		[144,936],
		[145,943],
		[146,950],
		[147,957],
		[148,964],
		[149,971],
		[150,978],
		[151,985],
		[152,991],
		[153,998],
		[154,1005],
		[155,1012],
		[156,1019],
		[157,1026],
		[158,1033],
		[159,1039],
		[160,1046],
		[161,1053],
		[162,1060],
		[163,1067],
		[164,1074],
		[165,1081],
		[166,1088],
		[167,1094],
		[168,1101],
		[169,1108],
		[170,1115],
		[171,1122],
		[172,1129],
		[173,1136],
		[174,1143],
		[175,1149],
		[176,1156],
		[177,1163],
		[178,1170],
		[179,1177],
		[180,1184],
		[181,1191],
		[182,1198],
		[183,1204],
		[184,1211],
		[185,1218],
		[186,1225],
		[187,1232],
		[188,1239],
		[189,1246],
		[190,1252],
		[191,1259],
		[192,1266],
		[193,1273],
		[194,1280],
		[195,1287],
		[196,1294],
		[197,1301],
		[198,1307],
		[199,1314],
		[200,1321],
		[201,1328],
		[202,1335],
		[203,1342],
		[204,1349],
		[205,1356],
		[206,1362],
		[207,1369],
		[208,1376],
		[209,1383],
		[210,1390],
		[211,1397],
		[212,1404],
		[213,1410],
		[214,1417],
		[215,1424],
		[216,1431],
		[217,1438],
		[218,1445],
		[219,1452],
		[220,1459],
		[221,1465],
		[222,1472],
		[223,1479],
		[224,1486],
		[225,1493],
		[226,1500],
		[227,1507],
		[228,1514],
		[229,1520],
		[230,1527],
		[231,1534],
		[232,1541],
		[233,1548],
		[234,1555],
		[235,1562],
		[236,1568],
		[237,1575],
		[238,1582],
		[239,1589],
		[240,1596],
		[241,1603],
		[242,1610],
		[243,1617],
		[244,1623],
		[245,1630],
		[246,1637],
		[247,1644],
		[248,1651],
		[249,1658],
		[250,1665],
		[251,1672],
		[252,1678],
		[253,1685],
		[254,1692],
		[255,1699],
		[256,1706],
		[257,1713],
		[258,1720],
		[259,1727],
		[260,1733],
		[261,1740],
		[262,1747],
		[263,1754],
		[264,1761],
		[265,1768],
		[266,1775],
		[267,1781],
		[268,1788],
		[269,1795],
		[270,1802],
		[271,1809],
		[272,1816],
		[273,1823],
		[274,1830],
		[275,1836],
		[276,1843],
		[277,1850],
		[278,1857],
		[279,1864],
		[280,1871],
		[281,1878],
		[282,1885],
		[283,1891],
		[284,1898],
		[285,1905],
		[286,1912],
		[287,1919],
		[288,1926],
		[289,1933],
		[290,1939],
		[291,1946],
		[292,1953],
		[293,1960],
		[294,1967],
		[295,1974],
		[296,1981],
		[297,1988],
		[298,1994],
		[299,2001],
		[300,2008],
		[301,2015],
		[302,2022],
		[303,2029],
		[304,2036],
		[305,2043],
		[306,2049],
		[307,2056],
		[308,2063],
		[309,2070],
		[310,2077],
		[311,2084],
		[312,2091],
		[313,2098],
		[314,2104],
		[315,2111],
		[316,2118],
		[317,2125],
		[318,2132],
		[319,2139],
		[320,2146],
		[321,2152],
		[322,2159],
		[323,2166],
		[324,2173],
		[325,2180],
		[326,2187],
		[327,2194],
		[328,2201],
		[329,2207],
		[330,2214],
		[331,2221],
		[332,2228],
		[333,2235],
		[334,2242],
		[335,2249],
		[336,2256],
		[337,2262],
		[338,2269],
		[339,2276],
		[340,2283],
		[341,2290],
		[342,2297],
		[343,2304],
		[344,2310],
		[345,2317],
		[346,2324],
		[347,2331],
		[348,2338],
		[349,2345],
		[350,2352],
		[351,2359],
		[352,2365],
		[353,2372],
		[354,2379],
		[355,2386],
		[356,2393],
		[357,2400],
		[358,2407],
		[359,2414],
		[360,2420],
		[361,2427],
		[362,2434],
		[363,2441],
		[364,2448],
		[365,2455],
		[366,2462],
		[367,2468],
		[368,2475],
		[369,2482],
		[370,2489],
		[371,2496],
		[372,2503],
		[373,2510],
		[374,2517],
		[375,2523],
		[376,2530],
		[377,2537],
		[378,2544],
		[379,2551],
		[380,2558],
		[381,2565],
		[382,2572],
		[383,2578],
		[384,2585],
		[385,2592],
		[386,2599],
		[387,2606],
		[388,2613],
		[389,2620],
		[390,2627],
		[391,2633],
		[392,2640],
		[393,2647],
		[394,2654],
		[395,2661],
		[396,2668],
		[397,2675],
		[398,2681],
		[399,2688],
		[400,2695],
		[401,2702],
		[402,2709],
		[403,2716],
		[404,2723],
		[405,2730],
		[406,2736],
		[407,2743],
		[408,2750],
		[409,2757],
		[410,2764],
		[411,2771],
		[412,2778],
		[413,2785],
		[414,2791],
		[415,2798],
		[416,2805],
		[417,2812],
		[418,2819],
		[419,2826],
		[420,2833],
		[421,2839],
		[422,2846],
		[423,2853],
		[424,2860],
		[425,2867],
		[426,2874],
		[427,2881],
		[428,2888],
		[429,2894],
		[430,2901],
		[431,2908],
		[432,2915],
		[433,2922],
		[434,2929],
		[435,2936],
		[436,2943],
		[437,2949],
		[438,2956],
		[439,2963],
		[440,2970],
		[441,2977],
		[442,2984],
		[443,2991],
		[444,2997],
		[445,3013],
		[446,3039],
		[447,3064],
		[448,3090],
		[449,3115],
		[450,3141],
		[451,3166],
		[452,3191],
		[453,3217],
		[454,3242],
		[455,3268],
		[456,3293],
		[457,3319],
		[458,3344],
		[459,3369],
		[460,3395],
		[461,3420],
		[462,3446],
		[463,3471],
		[464,3497],
		[465,3522],
		[466,3547],
		[467,3573],
		[468,3598],
		[469,3624],
		[470,3649],
		[471,3675],
		[472,3700],
		[473,3725],
		[474,3751],
		[475,3776],
		[476,3802],
		[477,3827],
		[478,3852],
		[479,3878],
		[480,3903],
		[481,3929],
		[482,3954],
		[483,3980],
		[484,4005],
		[485,4030],
		[486,4056],
		[487,4081],
		[488,4107],
		[489,4132],
		[490,4158],
		[491,4183],
		[492,4208],
		[493,4234],
		[494,4259],
		[495,4285],
		[496,4310],
		[497,4336],
		[498,4361],
		[499,4386],
		[500,4412],
		[501,4437],
		[502,4463],
		[503,4488],
		[504,4491],
		[504,4491],
		[504,4491],
		[504,4491],
		[508,4502],
		[509,4502],
		[509,4502],
		[509,4502],
		[509,4502],
		[513,4503],
		[514,4503],
		[514,4503],
		[514,4503],
		[514,4503],
		[518,4504],
		[519,4504],
		[519,4504],
		[519,4504],
		[519,4504],
		[523,4505],
		[524,4505],
		[524,4505],
		[524,4505],
		[524,4505],
		[528,4506],
		[529,4506],
		[529,4506],
		[529,4506],
		[532,4507],
		[533,4507],
		[533,4507],
		[533,4507],
		[533,4507],
		[537,4508],
		[538,4508],
		[538,4508],
		[538,4508],
		[538,4508],
		[542,4509],
		[543,4509],
		[543,4509],
		[543,4509],
		[543,4509],
		[547,4510],
		[548,4510],
		[548,4510],
		[548,4510],
		[548,4510],
		[552,4511],
		[553,4511],
		[553,4511],
		[553,4511],
		[553,4511],
		[557,4512],
		[558,4512],
		[558,4512],
		[558,4512],
		[561,4513],
		[562,4513],
		[562,4513],
		[562,4513],
		[562,4513],
		[566,4514],
		[567,4514],
		[567,4514],
		[567,4514],
		[567,4514],
		[571,4515],
		[572,4515],
		[572,4515],
		[572,4515],
		[572,4515],
		[576,4516],
		[577,4516],
		[577,4516],
		[577,4516],
		[577,4516],
		[581,4517],
		[582,4517],
		[582,4517],
		[582,4517],
		[582,4517],
		[586,4518],
		[587,4518],
		[587,4518],
		[587,4518],
		[590,4519],
		[591,4519],
		[591,4519],
		[591,4519],
		[591,4519],
		[595,4520],
		[596,4520],
		[596,4520],
		[596,4520],
		[596,4520],
		[600,4521],
		[601,4521],
		[601,4521],
		[601,4521],
		[601,4521],
		[605,4522],
		[606,4522],
		[606,4522],
		[606,4522],
		[606,4522],
		[610,4523],
		[611,4523],
		[611,4523],
		[611,4523],
		[611,4523],
		[615,4524],
		[616,4524],
		[616,4524],
		[616,4524],
		[616,4524],
		[620,4525],
		[621,4526],
		[622,4527],
		[623,4528],
		[624,4529],
		[625,4530],
		[626,4530],
		[627,4531],
		[628,4532],
		[629,4533],
		[630,4534],
		[631,4535],
		[632,4535],
		[633,4536],
		[634,4537],
		[635,4538],
		[636,4539],
		[637,4540],
		[638,4540],
		[639,4541],
		[640,4542],
		[641,4543],
		[642,4544],
		[643,4545],
		[644,4545],
		[645,4546],
		[646,4547],
		[647,4548],
		[648,4549],
		[649,4550],
		[650,4550],
		[651,4551],
		[652,4552],
		[653,4553],
		[654,4554],
		[655,4555],
		[656,4555],
		[657,4556],
		[658,4557],
		[659,4558],
		[660,4559],
		[661,4559],
		[662,4561],
		[663,4562],
		[664,4564],
		[665,4565],
		[666,4567],
		[667,4568],
		[668,4570],
		[669,4571],
		[670,4573],
		[671,4574],
		[672,4576],
		[673,4577],
		[674,4578],
		[675,4580],
		[676,4581],
		[677,4583],
		[678,4584],
		[679,4586],
		[680,4587],
		[681,4589],
		[682,4590],
		[683,4592],
		[684,4593],
		[685,4594],
		[686,4596],
		[687,4597],
		[688,4599],
		[689,4600],
		[690,4602],
		[691,4603],
		[692,4605],
		[693,4606],
		[694,4608],
		[695,4609],
		[696,4611],
		[697,4612],
		[698,4613],
		[699,4615],
		[700,4616],
		[701,4618],
		[702,4619],
		[703,4621],
		[704,4622],
		[705,4624],
		[706,4625],
		[707,4627],
		[708,4628],
		[709,4629],
		[710,4631],
		[711,4632],
		[712,4634],
		[713,4635],
		[714,4637],
		[715,4638],
		[716,4640],
		[717,4641],
		[718,4643],
		[719,4644],
		[720,4646],
		[721,4647],
		[722,4648],
		[723,4650],
		[724,4651],
		[725,4653],
		[726,4654],
		[727,4656],
		[728,4657],
		[729,4659],
		[730,4660],
		[731,4662],
		[732,4663],
		[733,4664],
		[734,4666],
		[735,4667],
		[736,4669],
		[737,4670],
		[738,4672],
		[739,4673],
		[740,4675],
		[741,4676],
		[742,4678],
		[743,4679],
		[744,4680],
		[745,4682],
		[746,4683],
		[747,4685],
		[748,4686],
		[749,4688],
		[750,4689],
		[751,4691],
		[752,4692],
		[753,4694],
		[754,4695],
		[755,4697],
		[756,4698],
		[757,4699],
		[758,4701],
		[759,4702],
		[760,4704],
		[761,4705],
		[762,4707],
		[763,4708],
		[764,4710],
		[765,4711],
		[766,4713],
		[767,4714],
		[768,4715],
		[769,4717],
		[770,4718],
		[771,4720],
		[772,4721],
		[773,4723],
		[774,4724],
		[775,4726],
		[776,4727],
		[777,4729],
		[778,4730],
		[779,4732],
		[780,4733],
		[781,4734],
		[782,4736],
		[783,4737],
		[784,4739],
		[785,4740],
		[786,4742],
		[787,4743],
		[788,4745],
		[789,4746],
		[790,4748],
		[791,4749],
		[792,4750],
		[793,4752],
		[794,4753],
		[795,4755],
		[796,4756],
		[797,4758],
		[798,4759],
		[799,4761],
		[800,4762],
		[801,4764],
		[802,4765],
		[803,4767],
		[804,4768],
		[805,4769],
		[806,4771],
		[807,4772],
		[808,4774],
		[809,4775],
		[810,4777],
		[811,4778],
		[812,4780],
		[813,4781],
		[814,4783],
		[815,4784],
		[816,4785],
		[817,4787],
		[818,4788],
		[819,4790],
		[820,4791],
		[821,4793],
		[822,4794],
		[823,4796],
		[824,4797],
		[825,4799],
		[826,4800],
		[827,4802],
		[828,4803],
		[829,4805],
		[830,4806],
		[831,4808],
		[832,4810],
		[833,4811],
		[834,4813],
		[835,4814],
		[836,4816],
		[837,4818],
		[838,4819],
		[839,4821],
		[840,4822],
		[841,4824],
		[842,4826],
		[843,4827],
		[844,4829],
		[845,4830],
		[846,4832],
		[847,4834],
		[848,4835],
		[849,4837],
		[850,4838],
		[851,4840],
		[852,4842],
		[853,4843],
		[854,4845],
		[855,4846],
		[856,4848],
		[857,4850],
		[858,4851],
		[859,4853],
		[860,4854],
		[861,4856],
		[862,4858],
		[863,4859],
		[864,4861],
		[865,4862],
		[866,4864],
		[867,4866],
		[868,4867],
		[869,4869],
		[870,4870],
		[871,4872],
		[872,4874],
		[873,4875],
		[874,4877],
		[875,4878],
		[876,4880],
		[877,4882],
		[878,4883],
		[879,4885],
		[880,4886],
		[881,4888],
		[882,4890],
		[883,4891],
		[884,4893],
		[885,4894],
		[886,4896],
		[887,4898],
		[888,4899],
		[889,4901],
		[890,4902],
		[891,4904],
		[892,4906],
		[893,4907],
		[894,4909],
		[895,4910],
		[896,4912],
		[897,4914],
		[898,4915],
		[899,4917],
		[900,4918],
		[901,4920],
		[902,4922],
		[903,4923],
		[904,4925],
		[905,4927],
		[906,4928],
		[907,4930],
		[908,4931],
		[909,4933],
		[910,4935],
		[911,4936],
		[912,4938],
		[913,4939],
		[914,4941],
		[915,4943],
		[916,4944],
		[917,4946],
		[918,4947],
		[919,4949],
		[920,4951],
		[921,4952],
		[922,4954],
		[923,4955],
		[924,4957],
		[925,4959],
		[926,4960],
		[927,4962],
		[928,4963],
		[929,4965],
		[930,4967],
		[931,4968],
		[932,4970],
		[933,4971],
		[934,4973],
		[935,4975],
		[936,4976],
		[937,4978],
		[938,4979],
		[939,4981],
		[940,4983],
		[941,4984],
		[942,4986],
		[943,4987],
		[944,4989],
		[945,4991],
		[946,4992],
		[947,4994],
		[948,4995],
		[949,4997],
		[950,4999],
		[951,5000],
		[952,5002],
		[953,5003],
		[954,5005],
		[955,5007],
		[956,5008],
		[957,5010],
		[958,5011],
		[959,5013],
		[960,5015],
		[961,5016],
		[962,5018],
		[963,5019],
		[964,5021],
		[965,5023],
		[966,5024],
		[967,5026],
		[968,5027],
		[969,5029],
		[970,5031],
		[971,5032],
		[972,5034],
		[973,5035],
		[974,5037],
		[975,5039],
		[976,5040],
		[977,5042],
		[978,5043],
		[979,5045],
		[980,5047],
		[981,5048],
		[982,5050],
		[983,5052],
		[984,5053],
		[985,5055],
		[986,5056],
		[987,5058],
		[988,5060],
		[989,5061],
		[990,5063],
		[991,5064],
		[992,5066],
		[993,5068],
		[994,5069],
		[995,5071],
		[996,5072],
		[997,5074],
		[998,5076],
		[999,5077],
		[1000,5079],
		[1001,5080],
		[1002,5082],
		[1003,5084],
		[1004,5085],
		[1005,5087],
		[1006,5088],
		[1007,5090],
		[1008,5092],
		[1009,5093],
		[1010,5095],
		[1011,5096],
		[1012,5098],
		[1013,5100],
		[1014,5101],
		[1015,5103],
		[1016,5104],
		[1017,5106],
		[1018,5108],
		[1019,5109],
		[1020,5111],
		[1021,5112],
		[1022,5114],
		[1023,5116],
		[1024,5117],
		[1025,5119],
		[1026,5120],
		[1027,5122],
		[1028,5124],
		[1029,5125],
		[1030,5127],
		[1031,5128],
		[1032,5130],
		[1033,5132],
		[1034,5133],
		[1035,5135],
		[1036,5136],
		[1037,5138],
		[1038,5140],
		[1039,5141],
		[1040,5143],
		[1041,5144],
		[1042,5146],
		[1043,5148],
		[1044,5149],
		[1045,5151],
		[1046,5152],
		[1047,5154],
		[1048,5156],
		[1049,5157],
		[1050,5159],
		[1051,5160],
		[1052,5162],
		[1053,5164],
		[1054,5165],
		[1055,5167],
		[1056,5168],
		[1057,5170],
		[1058,5172],
		[1059,5173],
		[1060,5175],
		[1061,5177],
		[1062,5178],
		[1063,5180],
		[1064,5181],
		[1065,5183],
		[1066,5185],
		[1067,5186],
		[1068,5188],
		[1069,5189],
		[1070,5191],
		[1071,5193],
		[1072,5194],
		[1073,5196],
		[1074,5197],
		[1075,5199],
		[1076,5201],
		[1077,5202],
		[1078,5204],
		[1079,5205],
		[1080,5207],
		[1081,5209],
		[1082,5210],
		[1083,5212],
		[1084,5213],
		[1085,5215],
		[1086,5217],
		[1087,5218],
		[1088,5220],
		[1089,5221],
		[1090,5223],
		[1091,5225],
		[1092,5226],
		[1093,5228],
		[1094,5229],
		[1095,5231],
		[1096,5233],
		[1097,5234],
		[1098,5236],
		[1099,5237],
		[1100,5239],
		[1101,5241],
		[1102,5242],
		[1103,5244],
		[1104,5245],
		[1105,5247],
		[1106,5249],
		[1107,5250],
		[1108,5252],
		[1109,5253],
		[1110,5255],
		[1111,5257],
		[1112,5258],
		[1113,5260],
		[1114,5261],
		[1115,5263],
		[1116,5265],
		[1117,5266],
		[1118,5268],
		[1119,5269],
		[1120,5271],
		[1121,5273],
		[1122,5274],
		[1123,5276],
		[1124,5277],
		[1125,5279],
		[1126,5281],
		[1127,5282],
		[1128,5284],
		[1129,5285],
		[1130,5287],
		[1131,5289],
		[1132,5290],
		[1133,5292],
		[1134,5293],
		[1135,5295],
		[1136,5297],
		[1137,5298],
		[1138,5300],
		[1139,5302],
		[1140,5303],
		[1141,5305],
		[1142,5306],
		[1143,5308],
		[1144,5310],
		[1145,5311],
		[1146,5313],
		[1147,5314],
		[1148,5316],
		[1149,5318],
		[1150,5319],
		[1151,5321],
		[1152,5322],
		[1153,5324],
		[1154,5326],
		[1155,5327],
		[1156,5329],
		[1157,5330],
		[1158,5332],
		[1159,5334],
		[1160,5335],
		[1161,5337],
		[1162,5338],
		[1163,5340],
		[1164,5342],
		[1165,5343],
		[1166,5345],
		[1167,5346],
		[1168,5348],
		[1169,5350],
		[1170,5351],
		[1171,5353],
		[1172,5354],
		[1173,5356],
		[1174,5358],
		[1175,5359],
		[1176,5361],
		[1177,5362],
		[1178,5364],
		[1179,5366],
		[1180,5367],
		[1181,5369],
		[1182,5370],
		[1183,5372],
		[1184,5374],
		[1185,5375],
		[1186,5377],
		[1187,5378],
		[1188,5380],
		[1189,5382],
		[1190,5383],
		[1191,5385],
		[1192,5386],
		[1193,5388],
		[1194,5390],
		[1195,5391],
		[1196,5393],
		[1197,5394],
		[1198,5396],
		[1199,5398],
		[1200,5399],
		[1201,5401],
		[1202,5402],
		[1203,5404],
		[1204,5406],
		[1205,5407],
		[1206,5409],
		[1207,5410],
		[1208,5412],
		[1209,5414],
		[1210,5415],
		[1211,5417],
		[1212,5418],
		[1213,5420],
		[1214,5422],
		[1215,5423],
		[1216,5425],
		[1217,5426],
		[1218,5428],
		[1219,5429],
		[1220,5431],
		[1221,5432],
		[1222,5433],
		[1223,5435],
		[1224,5436],
		[1225,5438],
		[1226,5439],
		[1227,5440],
		[1228,5442],
		[1229,5443],
		[1230,5445],
		[1231,5446],
		[1232,5447],
		[1233,5449],
		[1234,5450],
		[1235,5452],
		[1236,5453],
		[1237,5454],
		[1238,5456],
		[1239,5457],
		[1240,5459],
		[1241,5460],
		[1242,5461],
		[1243,5463],
		[1244,5464],
		[1245,5466],
		[1246,5467],
		[1247,5468],
		[1248,5470],
		[1249,5471],
		[1250,5473],
		[1251,5474],
		[1252,5475],
		[1253,5477],
		[1254,5478],
		[1255,5480],
		[1256,5481],
		[1257,5482],
		[1258,5484],
		[1259,5485],
		[1260,5487],
		[1261,5488],
		[1262,5489],
		[1263,5491],
		[1264,5492],
		[1265,5494],
		[1266,5495],
		[1267,5496],
		[1268,5498],
		[1269,5499],
		[1270,5501],
		[1271,5502],
		[1272,5503],
		[1273,5505],
		[1274,5506],
		[1275,5508],
		[1276,5509],
		[1277,5510],
		[1278,5512],
		[1279,5513],
		[1280,5515],
		[1281,5516],
		[1282,5517],
		[1283,5519],
		[1284,5520],
		[1285,5522],
		[1286,5523],
		[1287,5524],
		[1288,5526],
		[1289,5527],
		[1290,5529],
		[1291,5530],
		[1292,5531],
		[1293,5533],
		[1294,5534],
		[1295,5536],
		[1296,5537],
		[1297,5538],
		[1298,5540],
		[1299,5541],
		[1300,5543],
		[1301,5544],
		[1302,5545],
		[1303,5547],
		[1304,5548],
		[1305,5550],
		[1306,5551],
		[1307,5552],
		[1308,5554],
		[1309,5555],
		[1310,5557],
		[1311,5558],
		[1312,5559],
		[1313,5561],
		[1314,5562],
		[1315,5564],
		[1316,5565],
		[1317,5566],
		[1318,5568],
		[1319,5569],
		[1320,5571],
		[1321,5572],
		[1322,5573],
		[1323,5575],
		[1324,5576],
		[1325,5578],
		[1326,5579],
		[1327,5580],
		[1328,5582],
		[1329,5583],
		[1330,5585],
		[1331,5586],
		[1332,5587],
		[1333,5589],
		[1334,5590],
		[1335,5592],
		[1336,5593],
		[1337,5594],
		[1338,5596],
		[1339,5597],
		[1340,5599],
		[1341,5600],
		[1342,5601],
		[1343,5603],
		[1344,5604],
		[1345,5606],
		[1346,5607],
		[1347,5608],
		[1348,5610],
		[1349,5611],
		[1350,5613],
		[1351,5614],
		[1352,5615],
		[1353,5617],
		[1354,5618],
		[1355,5620],
		[1356,5621],
		[1357,5622],
		[1358,5624],
		[1359,5625],
		[1360,5627],
		[1361,5628],
		[1362,5629],
		[1363,5631],
		[1364,5632],
		[1365,5634],
		[1366,5635],
		[1367,5636],
		[1368,5638],
		[1369,5639],
		[1370,5641],
		[1371,5642],
		[1372,5643],
		[1373,5645],
		[1374,5646],
		[1375,5648],
		[1376,5649],
		[1377,5650],
		[1378,5652],
		[1379,5653],
		[1380,5654],
		[1381,5654],
		[1381,5654],
		[1381,5654],
		[1381,5654],
		[1381,5654],
		[1381,5654],
		[1381,5654],
		[1381,5654],
		[1381,5654],
		[1381,5654],
		[1381,5654],
		[1381,5654],
		[1381,5654],
		[1381,5654],
		[1395,5655],
		[1396,5655],
		[1396,5655],
		[1396,5655],
		[1396,5655],
		[1396,5655],
		[1396,5655],
		[1396,5655],
		[1396,5655],
		[1396,5655],
		[1396,5655],
		[1396,5655],
		[1396,5655],
		[1396,5655],
		[1396,5655],
		[1396,5655],
		[1411,5656],
		[1412,5656],
		[1412,5656],
		[1412,5656],
		[1412,5656],
		[1412,5656],
		[1412,5656],
		[1412,5656],
		[1412,5656],
		[1412,5656],
		[1412,5656],
		[1412,5656],
		[1412,5656],
		[1412,5656],
		[1412,5656],
		[1426,5657],
		[1427,5657],
		[1427,5657],
		[1427,5657],
		[1427,5657],
		[1427,5657],
		[1427,5657],
		[1427,5657],
		[1427,5657],
		[1427,5657],
		[1427,5657],
		[1427,5657],
		[1427,5657],
		[1427,5657],
		[1427,5657],
		[1427,5657],
		[1442,5658],
		[1443,5658],
		[1443,5658],
		[1443,5658],
		[1443,5658],
		[1443,5658],
		[1443,5658],
		[1443,5658],
		[1443,5658],
		[1443,5658],
		[1443,5658],
		[1443,5658],
		[1443,5658],
		[1443,5658],
		[1443,5658],
		[1443,5658],
		[1458,5659],
		[1459,5661],
		[1460,5663],
		[1461,5665],
		[1462,5667],
		[1463,5669],
		[1464,5671],
		[1465,5673],
		[1466,5675],
		[1467,5677],
		[1468,5679],
		[1469,5681],
		[1470,5683],
		[1471,5685],
		[1472,5687],
		[1473,5689],
		[1474,5691],
		[1475,5693],
		[1476,5695],
		[1477,5697],
		[1478,5699],
		[1479,5701],
		[1480,5703],
		[1481,5705],
		[1482,5707],
		[1483,5709],
		[1484,5711],
		[1485,5713],
		[1486,5715],
		[1487,5717],
		[1488,5719],
		[1489,5721],
		[1490,5723],
		[1491,5725],
		[1492,5727],
		[1493,5729],
		[1494,5731],
		[1495,5733],
		[1496,5735],
		[1497,5736],
		[1498,5738],
		[1499,5740],
		[1500,5742],
		[1501,5744],
		[1502,5746],
		[1503,5748],
		[1504,5750],
		[1505,5752],
		[1506,5754],
		[1507,5756],
		[1508,5758],
		[1509,5760],
		[1510,5762],
		[1511,5764],
		[1512,5766],
		[1513,5768],
		[1514,5770],
		[1515,5772],
		[1516,5774],
		[1517,5776],
		[1518,5778],
		[1519,5780],
		[1520,5782],
		[1521,5784],
		[1522,5786],
		[1523,5788],
		[1524,5790],
		[1525,5792],
		[1526,5794],
		[1527,5796],
		[1528,5798],
		[1529,5800],
		[1530,5802],
		[1531,5804],
		[1532,5806],
		[1533,5808],
		[1534,5810],
		[1535,5812],
		[1536,5813],
		[1537,5815],
		[1538,5817],
		[1539,5819],
		[1540,5821],
		[1541,5823],
		[1542,5825],
		[1543,5827],
		[1544,5829],
		[1545,5831],
		[1546,5833],
		[1547,5835],
		[1548,5837],
		[1549,5839],
		[1550,5841],
		[1551,5843],
		[1552,5845],
		[1553,5847],
		[1554,5849],
		[1555,5851],
		[1556,5853],
		[1557,5855],
		[1558,5857],
		[1559,5859],
		[1560,5861],
		[1561,5863],
		[1562,5865],
		[1563,5867],
		[1564,5869],
		[1565,5871],
		[1566,5873],
		[1567,5875],
		[1568,5877],
		[1569,5879],
		[1570,5881],
		[1571,5883],
		[1572,5885],
		[1573,5887],
		[1574,5889],
		[1575,5890],
		[1576,5892],
		[1577,5894],
		[1578,5896],
		[1579,5898],
		[1580,5900],
		[1581,5902],
		[1582,5904],
		[1583,5906],
		[1584,5908],
		[1585,5910],
		[1586,5912],
		[1587,5914],
		[1588,5916],
		[1589,5918],
		[1590,5920],
		[1591,5922],
		[1592,5924],
		[1593,5926],
		[1594,5928],
		[1595,5930],
		[1596,5932],
		[1597,5934],
		[1598,5936],
		[1599,5938],
		[1600,5940],
		[1601,5942],
		[1602,5944],
		[1603,5946],
		[1604,5948],
		[1605,5950],
		[1606,5952],
		[1607,5954],
		[1608,5956],
		[1609,5958],
		[1610,5960],
		[1611,5962],
		[1612,5964],
		[1613,5965],
		[1614,5967],
		[1615,5969],
		[1616,5971],
		[1617,5973],
		[1618,5975],
		[1619,5977],
		[1620,5979],
		[1621,5981],
		[1622,5983],
		[1623,5985],
		[1624,5987],
		[1625,5989],
		[1626,5991],
		[1627,5993],
		[1628,5995],
		[1629,5997],
		[1630,5999],
		[1631,6001],
		[1632,6003],
		[1633,6005],
		[1634,6007],
		[1635,6009],
		[1636,6011],
		[1637,6013],
		[1638,6015],
		[1639,6017],
		[1640,6019],
		[1641,6021],
		[1642,6023],
		[1643,6025],
		[1644,6027],
		[1645,6029],
		[1646,6031],
		[1647,6033],
		[1648,6035],
		[1649,6037],
		[1650,6039],
		[1651,6041],
		[1652,6042],
		[1653,6044],
		[1654,6046],
		[1655,6048],
		[1656,6050],
		[1657,6052],
		[1658,6054],
		[1659,6056],
		[1660,6058],
		[1661,6060],
		[1662,6062],
		[1663,6064],
		[1664,6066],
		[1665,6068],
		[1666,6070],
		[1667,6072],
		[1668,6074],
		[1669,6076],
		[1670,6078],
		[1671,6080],
		[1672,6082],
		[1673,6084],
		[1674,6086],
		[1675,6088],
		[1676,6090],
		[1677,6092],
		[1678,6094],
		[1679,6096],
		[1680,6098],
		[1681,6100],
		[1682,6102],
		[1683,6104],
		[1684,6106],
		[1685,6108],
		[1686,6110],
		[1687,6112],
		[1688,6114],
		[1689,6116],
		[1690,6118],
		[1691,6119],
		[1692,6121],
		[1693,6123],
		[1694,6125],
		[1695,6127],
		[1696,6129],
		[1697,6131],
		[1698,6133],
		[1699,6135],
		[1700,6137],
		[1701,6139],
		[1702,6141],
		[1703,6143],
		[1704,6145],
		[1705,6147],
		[1706,6149],
		[1707,6151],
		[1708,6153],
		[1709,6155],
		[1710,6157],
		[1711,6159],
		[1712,6161],
		[1713,6163],
		[1714,6165],
		[1715,6167],
		[1716,6169],
		[1717,6171],
		[1718,6173],
		[1719,6175],
		[1720,6177],
		[1721,6179],
		[1722,6181],
		[1723,6183],
		[1724,6185],
		[1725,6187],
		[1726,6189],
		[1727,6191],
		[1728,6193],
		[1729,6194],
		[1730,6196],
		[1731,6198],
		[1732,6200],
		[1733,6202],
		[1734,6204],
		[1735,6206],
		[1736,6208],
		[1737,6210],
		[1738,6212],
		[1739,6214],
		[1740,6216],
		[1741,6218],
		[1742,6220],
		[1743,6222],
		[1744,6224],
		[1745,6226],
		[1746,6228],
		[1747,6230],
		[1748,6232],
		[1749,6234],
		[1750,6236],
		[1751,6238],
		[1752,6240],
		[1753,6242],
		[1754,6244],
		[1755,6246],
		[1756,6248],
		[1757,6250],
		[1758,6252],
		[1759,6254],
		[1760,6256],
		[1761,6258],
		[1762,6260],
		[1763,6262],
		[1764,6264],
		[1765,6266],
		[1766,6268],
		[1767,6270],
		[1768,6271],
		[1769,6273],
		[1770,6275],
		[1771,6277],
		[1772,6279],
		[1773,6281],
		[1774,6283],
		[1775,6285],
		[1776,6287],
		[1777,6289],
		[1778,6291],
		[1779,6293],
		[1780,6295],
		[1781,6297],
		[1782,6299],
		[1783,6301],
		[1784,6303],
		[1785,6305],
		[1786,6307],
		[1787,6309],
		[1788,6311],
		[1789,6313],
		[1790,6315],
		[1791,6317],
		[1792,6319],
		[1793,6321],
		[1794,6323],
		[1795,6325],
		[1796,6327],
		[1797,6329],
		[1798,6331],
		[1799,6333],
		[1800,6335],
		[1801,6337],
		[1802,6339],
		[1803,6341],
		[1804,6343],
		[1805,6345],
		[1806,6347],
		[1807,6348],
		[1808,6350],
		[1809,6352],
		[1810,6354],
		[1811,6356],
		[1812,6358],
		[1813,6360],
		[1814,6362],
		[1815,6364],
		[1816,6366],
		[1817,6368],
		[1818,6370],
		[1819,6372],
		[1820,6374],
		[1821,6376],
		[1822,6378],
		[1823,6380],
		[1824,6382],
		[1825,6384],
		[1826,6386],
		[1827,6388],
		[1828,6390],
		[1829,6392],
		[1830,6394],
		[1831,6396],
		[1832,6398],
		[1833,6400],
		[1834,6402],
		[1835,6404],
		[1836,6406],
		[1837,6408],
		[1838,6410],
		[1839,6412],
		[1840,6414],
		[1841,6416],
		[1842,6418],
		[1843,6420],
		[1844,6422],
		[1845,6424],
		[1846,6425],
		[1847,6427],
		[1848,6429],
		[1849,6431],
		[1850,6433],
		[1851,6435],
		[1852,6437],
		[1853,6439],
		[1854,6441],
		[1855,6443],
		[1856,6445],
		[1857,6447],
		[1858,6449],
		[1859,6451],
		[1860,6453],
		[1861,6455],
		[1862,6456],
		[1863,6458],
		[1864,6460],
		[1865,6462],
		[1866,6464],
		[1867,6466],
		[1868,6468],
		[1869,6470],
		[1870,6472],
		[1871,6474],
		[1872,6476],
		[1873,6478],
		[1874,6480],
		[1875,6482],
		[1876,6484],
		[1877,6486],
		[1878,6488],
		[1879,6489],
		[1880,6491],
		[1881,6493],
		[1882,6495],
		[1883,6497],
		[1884,6499],
		[1885,6501],
		[1886,6503],
		[1887,6505],
		[1888,6507],
		[1889,6509],
		[1890,6511],
		[1891,6513],
		[1892,6515],
		[1893,6517],
		[1894,6519],
		[1895,6521],
		[1896,6522],
		[1897,6524],
		[1898,6526],
		[1899,6528],
		[1900,6530],
		[1901,6532],
		[1902,6534],
		[1903,6536],
		[1904,6538],
		[1905,6540],
		[1906,6542],
		[1907,6544],
		[1908,6546],
		[1909,6548],
		[1910,6550],
		[1911,6552],
		[1912,6554],
		[1913,6555],
		[1914,6557],
		[1915,6559],
		[1916,6561],
		[1917,6563],
		[1918,6565],
		[1919,6567],
		[1920,6569],
		[1921,6571],
		[1922,6573],
		[1923,6575],
		[1924,6577],
		[1925,6579],
		[1926,6581],
		[1927,6583],
		[1928,6585],
		[1929,6587],
		[1930,6588],
		[1931,6590],
		[1932,6592],
		[1933,6594],
		[1934,6596],
		[1935,6598],
		[1936,6600],
		[1937,6602],
		[1938,6604],
		[1939,6606],
		[1940,6608],
		[1941,6610],
		[1942,6612],
		[1943,6614],
		[1944,6616],
		[1945,6618],
		[1946,6620],
		[1947,6621],
		[1948,6623],
		[1949,6625],
		[1950,6627],
		[1951,6629],
		[1952,6631],
		[1953,6633],
		[1954,6635],
		[1955,6637],
		[1956,6639],
		[1957,6641],
		[1958,6643],
		[1959,6645],
		[1960,6647],
		[1961,6649],
		[1962,6651],
		[1963,6652],
		[1964,6654],
		[1965,6656],
		[1966,6658],
		[1967,6660],
		[1968,6662],
		[1969,6664],
		[1970,6666],
		[1971,6668],
		[1972,6670],
		[1973,6672],
		[1974,6674],
		[1975,6676],
		[1976,6678],
		[1977,6680],
		[1978,6682],
		[1979,6684],
		[1980,6685],
		[1981,6687],
		[1982,6689],
		[1983,6691],
		[1984,6693],
		[1985,6695],
		[1986,6697],
		[1987,6699],
		[1988,6701],
		[1989,6703],
		[1990,6705],
		[1991,6707],
		[1992,6709],
		[1993,6711],
		[1994,6713],
		[1995,6715],
		[1996,6717],
		[1997,6718],
		[1998,6720],
		[1999,6722],
		[2000,6724],
		[2001,6726],
		[2002,6728],
		[2003,6730],
		[2004,6732],
		[2005,6734],
		[2006,6736],
		[2007,6738],
		[2008,6740],
		[2009,6742],
		[2010,6744],
		[2011,6746],
		[2012,6748],
		[2013,6750],
		[2014,6751],
		[2015,6753],
		[2016,6755],
		[2017,6757],
		[2018,6759],
		[2019,6761],
		[2020,6763],
		[2021,6765],
		[2022,6767],
		[2023,6769],
		[2024,6771],
		[2025,6773],
		[2026,6775],
		[2027,6777],
		[2028,6779],
		[2029,6781],
		[2030,6783],
		[2031,6784],
		[2032,6786],
		[2033,6788],
		[2034,6790],
		[2035,6792],
		[2036,6794],
		[2037,6796],
		[2038,6798],
		[2039,6800],
		[2040,6802],
		[2041,6804],
		[2042,6806],
		[2043,6808],
		[2044,6810],
		[2045,6812],
		[2046,6814],
		[2047,6816],
		[2048,6817],
		[2049,6819],
		[2050,6821],
		[2051,6823],
		[2052,6825],
		[2053,6827],
		[2054,6829],
		[2055,6831],
		[2056,6833],
		[2057,6835],
		[2058,6837],
		[2059,6839],
		[2060,6841],
		[2061,6843],
		[2062,6845],
		[2063,6847],
		[2064,6849],
		[2065,6852],
		[2066,6854],
		[2067,6857],
		[2068,6859],
		[2069,6862],
		[2070,6864],
		[2071,6867],
		[2072,6869],
		[2073,6872],
		[2074,6874],
		[2075,6877],
		[2076,6879],
		[2077,6882],
		[2078,6884],
		[2079,6887],
		[2080,6889],
		[2081,6892],
		[2082,6894],
		[2083,6897],
		[2084,6899],
		[2085,6902],
		[2086,6904],
		[2087,6907],
		[2088,6909],
		[2089,6912],
		[2090,6914],
		[2091,6917],
		[2092,6919],
		[2093,6922],
		[2094,6924],
		[2095,6927],
		[2096,6929],
		[2097,6932],
		[2098,6934],
		[2099,6937],
		[2100,6939],
		[2101,6942],
		[2102,6944],
		[2103,6947],
		[2104,6949],
		[2105,6952],
		[2106,6954],
		[2107,6957],
		[2108,6959],
		[2109,6962],
		[2110,6964],
		[2111,6967],
		[2112,6969],
		[2113,6972],
		[2114,6974],
		[2115,6977],
		[2116,6979],
		[2117,6982],
		[2118,6984],
		[2119,6987],
		[2120,6989],
		[2121,6992],
		[2122,6994],
		[2123,6997],
		[2124,6999],
		[2125,7002],
		[2126,7004],
		[2127,7007],
		[2128,7009],
		[2129,7012],
		[2130,7014],
		[2131,7017],
		[2132,7020],
		[2133,7022],
		[2134,7025],
		[2135,7027],
		[2136,7030],
		[2137,7032],
		[2138,7035],
		[2139,7037],
		[2140,7040],
		[2141,7042],
		[2142,7045],
		[2143,7047],
		[2144,7050],
		[2145,7052],
		[2146,7055],
		[2147,7057],
		[2148,7060],
		[2149,7062],
		[2150,7065],
		[2151,7067],
		[2152,7070],
		[2153,7072],
		[2154,7075],
		[2155,7077],
		[2156,7080],
		[2157,7082],
		[2158,7085],
		[2159,7087],
		[2160,7090],
		[2161,7092],
		[2162,7095],
		[2163,7097],
		[2164,7100],
		[2165,7102],
		[2166,7105],
		[2167,7107],
		[2168,7110],
		[2169,7112],
		[2170,7115],
		[2171,7117],
		[2172,7120],
		[2173,7122],
		[2174,7125],
		[2175,7127],
		[2176,7130],
		[2177,7132],
		[2178,7135],
		[2179,7137],
		[2180,7140],
		[2181,7142],
		[2182,7145],
		[2183,7147],
		[2184,7150],
		[2185,7152],
		[2186,7155],
		[2187,7157],
		[2188,7160],
		[2189,7162],
		[2190,7165],
		[2191,7167],
		[2192,7170],
		[2193,7172],
		[2194,7175],
		[2195,7177],
		[2196,7180],
		[2197,7182],
		[2198,7185],
		[2199,7188],
		[2200,7190],
		[2201,7193],
		[2202,7195],
		[2203,7198],
		[2204,7200],
		[2205,7203],
		[2206,7205],
		[2207,7208],
		[2208,7210],
		[2209,7213],
		[2210,7215],
		[2211,7218],
		[2212,7220],
		[2213,7223],
		[2214,7225],
		[2215,7228],
		[2216,7230],
		[2217,7233],
		[2218,7235],
		[2219,7238],
		[2220,7240],
		[2221,7243],
		[2222,7245],
		[2223,7248],
		[2224,7250],
		[2225,7253],
		[2226,7255],
		[2227,7258],
		[2228,7260],
		[2229,7263],
		[2230,7265],
		[2231,7268],
		[2232,7270],
		[2233,7273],
		[2234,7275],
		[2235,7278],
		[2236,7280],
		[2237,7283],
		[2238,7285],
		[2239,7288],
		[2240,7290],
		[2241,7293],
		[2242,7295],
		[2243,7298],
		[2244,7300],
		[2245,7303],
		[2246,7305],
		[2247,7308],
		[2248,7310],
		[2249,7313],
		[2250,7315],
		[2251,7318],
		[2252,7320],
		[2253,7323],
		[2254,7325],
		[2255,7328],
		[2256,7330],
		[2257,7333],
		[2258,7335],
		[2259,7338],
		[2260,7340],
		[2261,7343],
		[2262,7345],
		[2263,7348],
		[2264,7350],
		[2265,7353],
		[2266,7355],
		[2267,7358],
		[2268,7361],
		[2269,7363],
		[2270,7366],
		[2271,7368],
		[2272,7371],
		[2273,7373],
		[2274,7376],
		[2275,7378],
		[2276,7381],
		[2277,7383],
		[2278,7386],
		[2279,7388],
		[2280,7391],
		[2281,7393],
		[2282,7396],
		[2283,7398],
		[2284,7401],
		[2285,7403],
		[2286,7406],
		[2287,7408],
		[2288,7411],
		[2289,7413],
		[2290,7416],
		[2291,7418],
		[2292,7421],
		[2293,7423],
		[2294,7426],
		[2295,7428],
		[2296,7431],
		[2297,7433],
		[2298,7436],
		[2299,7438],
		[2300,7441],
		[2301,7443],
		[2302,7446],
		[2303,7448],
		[2304,7451],
		[2305,7453],
		[2306,7456],
		[2307,7458],
		[2308,7461],
		[2309,7463],
		[2310,7466],
		[2311,7468],
		[2312,7471],
		[2313,7473],
		[2314,7476],
		[2315,7478],
		[2316,7481],
		[2317,7483],
		[2318,7486],
		[2319,7488],
		[2320,7491],
		[2321,7493],
		[2322,7496],
		[2323,7498],
		[2324,7501],
		[2325,7503],
		[2326,7506],
		[2327,7508],
		[2328,7511],
		[2329,7513],
		[2330,7516],
		[2331,7518],
		[2332,7521],
		[2333,7523],
		[2334,7526],
		[2335,7529],
		[2336,7531],
		[2337,7534],
		[2338,7536],
		[2339,7539],
		[2340,7541],
		[2341,7544],
		[2342,7546],
		[2343,7549],
		[2344,7551],
		[2345,7554],
		[2346,7556],
		[2347,7559],
		[2348,7561],
		[2349,7564],
		[2350,7566],
		[2351,7569],
		[2352,7571],
		[2353,7574],
		[2354,7576],
		[2355,7579],
		[2356,7581],
		[2357,7584],
		[2358,7586],
		[2359,7589],
		[2360,7591],
		[2361,7594],
		[2362,7596],
		[2363,7599],
		[2364,7601],
		[2365,7604],
		[2366,7606],
		[2367,7609],
		[2368,7611],
		[2369,7614],
		[2370,7616],
		[2371,7619],
		[2372,7621],
		[2373,7624],
		[2374,7626],
		[2375,7629],
		[2376,7631],
		[2377,7634],
		[2378,7636],
		[2379,7639],
		[2380,7641],
		[2381,7644],
		[2382,7646],
		[2383,7649],
		[2384,7651],
		[2385,7654],
		[2386,7656],
		[2387,7659],
		[2388,7661],
		[2389,7664],
		[2390,7666],
		[2391,7669],
		[2392,7671],
		[2393,7674],
		[2394,7676],
		[2395,7679],
		[2396,7681],
		[2397,7684],
		[2398,7686],
		[2399,7689],
		[2400,7691],
		[2401,7694],
		[2402,7696],
		[2403,7699],
		[2404,7702],
		[2405,7704],
		[2406,7707],
		[2407,7709],
		[2408,7712],
		[2409,7714],
		[2410,7717],
		[2411,7719],
		[2412,7722],
		[2413,7724],
		[2414,7727],
		[2415,7729],
		[2416,7732],
		[2417,7734],
		[2418,7737],
		[2419,7739],
		[2420,7742],
		[2421,7744],
		[2422,7747],
		[2423,7749],
		[2424,7752],
		[2425,7754],
		[2426,7757],
		[2427,7759],
		[2428,7762],
		[2429,7764],
		[2430,7767],
		[2431,7769],
		[2432,7772],
		[2433,7774],
		[2434,7777],
		[2435,7779],
		[2436,7782],
		[2437,7784],
		[2438,7787],
		[2439,7789],
		[2440,7792],
		[2441,7794],
		[2442,7797],
		[2443,7799],
		[2444,7802],
		[2445,7804],
		[2446,7807],
		[2447,7809],
		[2448,7812],
		[2449,7814],
		[2450,7817],
		[2451,7819],
		[2452,7822],
		[2453,7824],
		[2454,7827],
		[2455,7829],
		[2456,7832],
		[2457,7834],
		[2458,7837],
		[2459,7839],
		[2460,7842],
		[2461,7844],
		[2462,7847],
		[2463,7849],
		[2464,7852],
		[2465,7854],
		[2466,7857],
		[2467,7859],
		[2468,7862],
		[2469,7864],
		[2470,7867],
		[2471,7870],
		[2472,7872],
		[2473,7875],
		[2474,7877],
		[2475,7880],
		[2476,7882],
		[2477,7885],
		[2478,7887],
		[2479,7890],
		[2480,7892],
		[2481,7895],
		[2482,7897],
		[2483,7900],
		[2484,7902],
		[2485,7905],
		[2486,7907],
		[2487,7910],
		[2488,7912],
		[2489,7915],
		[2490,7917],
		[2491,7920],
		[2492,7922],
		[2493,7925],
		[2494,7927],
		[2495,7930],
		[2496,7932],
		[2497,7935],
		[2498,7937],
		[2499,7940],
		[2500,7942],
		[2501,7945],
		[2502,7947],
		[2503,7950],
		[2504,7952],
		[2505,7955],
		[2506,7957],
		[2507,7960],
		[2508,7962],
		[2509,7965],
		[2510,7967],
		[2511,7970],
		[2512,7972],
		[2513,7975],
		[2514,7977],
		[2515,7980],
		[2516,7982],
		[2517,7985],
		[2518,7987],
		[2519,7990],
		[2520,7992],
		[2521,7995],
		[2522,7997],
		[2523,8000],
		[2524,8002],
		[2525,8005],
		[2526,8007],
		[2527,8010],
		[2528,8012],
		[2529,8015],
		[2530,8017],
		[2531,8020],
		[2532,8022],
		[2533,8025],
		[2534,8027],
		[2535,8030],
		[2536,8032],
		[2537,8035],
		[2538,8037],
		[2539,8043],
		[2540,8053],
		[2541,8062],
		[2542,8071],
		[2543,8080],
		[2544,8089],
		[2545,8098],
		[2546,8107],
		[2547,8116],
		[2548,8125],
		[2549,8134],
		[2550,8143],
		[2551,8153],
		[2552,8162],
		[2553,8171],
		[2554,8180],
		[2555,8189],
		[2556,8198],
		[2557,8207],
		[2558,8216],
		[2559,8225],
		[2560,8234],
		[2561,8243],
		[2562,8253],
		[2563,8262],
		[2564,8271],
		[2565,8280],
		[2566,8289],
		[2567,8298],
		[2568,8307],
		[2569,8316],
		[2570,8325],
		[2571,8334],
		[2572,8343],
		[2573,8353],
		[2574,8362],
		[2575,8371],
		[2576,8380],
		[2577,8389],
		[2578,8398],
		[2579,8407],
		[2580,8416],
		[2581,8425],
		[2582,8434],
		[2583,8443],
		[2584,8453],
		[2585,8462],
		[2586,8471],
		[2587,8480],
		[2588,8489],
		[2589,8498],
		[2590,8507],
		[2591,8516],
		[2592,8525],
		[2593,8534],
		[2594,8543],
		[2595,8553],
		[2596,8562],
		[2597,8571],
		[2598,8580],
		[2599,8589],
		[2600,8598],
		[2601,8607],
		[2602,8616],
		[2603,8625],
		[2604,8634],
		[2605,8643],
		[2606,8653],
		[2607,8662],
		[2608,8671],
		[2609,8680],
		[2610,8689],
		[2611,8698],
		[2612,8707],
		[2613,8716],
		[2614,8725],
		[2615,8734],
		[2616,8743],
		[2617,8753],
		[2618,8762],
		[2619,8771],
		[2620,8780],
		[2621,8789],
		[2622,8798],
		[2623,8807],
		[2624,8816],
		[2625,8825],
		[2626,8834],
		[2627,8843],
		[2628,8851],
		[2629,8859],
		[2630,8866],
		[2631,8874],
		[2632,8881],
		[2633,8888],
		[2634,8896],
		[2635,8903],
		[2636,8910],
		[2637,8918],
		[2638,8925],
		[2639,8932],
		[2640,8940],
		[2641,8947],
		[2642,8954],
		[2643,8962],
		[2644,8969],
		[2645,8976],
		[2646,8984],
		[2647,8991],
		[2648,8998],
		[2649,9006],
		[2650,9013],
		[2651,9021],
		[2652,9028],
		[2653,9035],
		[2654,9043],
		[2655,9050],
		[2656,9057],
		[2657,9065],
		[2658,9072],
		[2659,9079],
		[2660,9087],
		[2661,9094],
		[2662,9101],
		[2663,9109],
		[2664,9116],
		[2665,9123],
		[2666,9131],
		[2667,9138],
		[2668,9145],
		[2669,9153],
		[2670,9160],
		[2671,9168],
		[2672,9175],
		[2673,9182],
		[2674,9190],
		[2675,9197],
		[2676,9204],
		[2677,9212],
		[2678,9219],
		[2679,9226],
		[2680,9234],
		[2681,9241],
		[2682,9248],
		[2683,9256],
		[2684,9263],
		[2685,9270],
		[2686,9278],
		[2687,9285],
		[2688,9292],
		[2689,9300],
		[2690,9307],
		[2691,9315],
		[2692,9322],
		[2693,9329],
		[2694,9337],
		[2695,9344],
		[2696,9351],
		[2697,9359],
		[2698,9366],
		[2699,9373],
		[2700,9381],
		[2701,9388],
		[2702,9395],
		[2703,9403],
		[2704,9410],
		[2705,9417],
		[2706,9425],
		[2707,9432],
		[2708,9439],
		[2709,9447],
		[2710,9454],
		[2711,9462],
		[2712,9469],
		[2713,9476],
		[2714,9484],
		[2715,9491],
		[2716,9498],
		[2717,9506],
		[2718,9513],
		[2719,9520],
		[2720,9528],
		[2721,9535],
		[2722,9542],
		[2723,9550],
		[2724,9557],
		[2725,9564],
		[2726,9572],
		[2727,9579],
		[2728,9586],
		[2729,9594],
		[2730,9601],
		[2731,9609],
		[2732,9616],
		[2733,9623],
		[2734,9631],
		[2735,9638],
		[2736,9645],
		[2737,9653],
		[2738,9660],
		[2739,9667],
		[2740,9675],
		[2741,9682],
		[2742,9689],
		[2743,9697],
		[2744,9704],
		[2745,9711],
		[2746,9719],
		[2747,9726],
		[2748,9733],
		[2749,9741],
		[2750,9748],
		[2751,9756],
		[2752,9763],
		[2753,9770],
		[2754,9778],
		[2755,9785],
		[2756,9792],
		[2757,9800],
		[2758,9807],
		[2759,9814],
		[2760,9822],
		[2761,9829],
		[2762,9836],
		[2763,9844],
		[2764,9851],
		[2765,9858],
		[2766,9866],
		[2767,9873],
		[2768,9880],
		[2769,9888],
		[2770,9895],
		[2771,9903],
		[2772,9910],
		[2773,9917],
		[2774,9925],
		[2775,9932],
		[2776,9939],
		[2777,9947],
		[2778,9954],
		[2779,9961],
		[2780,9969],
		[2781,9976],
		[2782,9983],
		[2783,9991],
		[2784,9998],
		[2785,10005],
		[2786,10013],
		[2787,10020],
		[2788,10027],
		[2789,10035],
		[2790,10042],
		[2791,10050],
		[2792,10057],
		[2793,10064],
		[2794,10072],
		[2795,10079],
		[2796,10086],
		[2797,10094],
		[2798,10101],
		[2799,10108],
		[2800,10116],
		[2801,10123],
		[2802,10130],
		[2803,10138],
		[2804,10145],
		[2805,10152],
		[2806,10160],
		[2807,10167],
		[2808,10174],
		[2809,10182],
		[2810,10189],
		[2811,10197],
		[2812,10204],
		[2813,10211],
		[2814,10219],
		[2815,10226],
		[2816,10233],
		[2817,10241],
		[2818,10248],
		[2819,10255],
		[2820,10263],
		[2821,10270],
		[2822,10277],
		[2823,10285],
		[2824,10292],
		[2825,10299],
		[2826,10307],
		[2827,10314],
		[2828,10321],
		[2829,10329],
		[2830,10336],
		[2831,10342],
		[2832,10346],
		[2833,10350],
		[2834,10355],
		[2835,10359],
		[2836,10363],
		[2837,10367],
		[2838,10372],
		[2839,10376],
		[2840,10380],
		[2841,10385],
		[2842,10389],
		[2843,10393],
		[2844,10397],
		[2845,10402],
		[2846,10406],
		[2847,10410],
		[2848,10414],
		[2849,10419],
		[2850,10423],
		[2851,10427],
		[2852,10432],
		[2853,10436],
		[2854,10440],
		[2855,10444],
		[2856,10449],
		[2857,10453],
		[2858,10457],
		[2859,10462],
		[2860,10466],
		[2861,10470],
		[2862,10474],
		[2863,10479],
		[2864,10483],
		[2865,10487],
		[2866,10491],
		[2867,10496],
		[2868,10500],
		[2869,10504],
		[2870,10509],
		[2871,10513],
		[2872,10517],
		[2873,10521],
		[2874,10526],
		[2875,10530],
		[2876,10534],
		[2877,10538],
		[2878,10543],
		[2879,10547],
		[2880,10551],
		[2881,10556],
		[2882,10560],
		[2883,10564],
		[2884,10568],
		[2885,10573],
		[2886,10577],
		[2887,10581],
		[2888,10586],
		[2889,10590],
		[2890,10594],
		[2891,10598],
		[2892,10603],
		[2893,10607],
		[2894,10611],
		[2895,10615],
		[2896,10620],
		[2897,10624],
		[2898,10628],
		[2899,10633],
		[2900,10637],
		[2901,10641],
		[2902,10645],
		[2903,10650],
		[2904,10654],
		[2905,10658],
		[2906,10662],
		[2907,10667],
		[2908,10671],
		[2909,10675],
		[2910,10680],
		[2911,10684],
		[2912,10688],
		[2913,10692],
		[2914,10697],
		[2915,10701],
		[2916,10705],
		[2917,10710],
		[2918,10714],
		[2919,10718],
		[2920,10722],
		[2921,10727],
		[2922,10731],
		[2923,10735],
		[2924,10739],
		[2925,10744],
		[2926,10748],
		[2927,10752],
		[2928,10757],
		[2929,10761],
		[2930,10765],
		[2931,10769],
		[2932,10774],
		[2933,10778],
		[2934,10782],
		[2935,10786],
		[2936,10791],
		[2937,10795],
		[2938,10799],
		[2939,10804],
		[2940,10808],
		[2941,10812],
		[2942,10816],
		[2943,10821],
		[2944,10825],
		[2945,10829],
		[2946,10834],
		[2947,10838],
		[2948,10842],
		[2949,10846],
		[2950,10851],
		[2951,10855],
		[2952,10859],
		[2953,10863],
		[2954,10868],
		[2955,10872],
		[2956,10876],
		[2957,10881],
		[2958,10885],
		[2959,10889],
		[2960,10893],
		[2961,10898],
		[2962,10902],
		[2963,10906],
		[2964,10910],
		[2965,10915],
		[2966,10919],
		[2967,10923],
		[2968,10928],
		[2969,10932],
		[2970,10936],
		[2971,10940],
		[2972,10945],
		[2973,10949],
		[2974,10953],
		[2975,10958],
		[2976,10962],
		[2977,10966],
		[2978,10970],
		[2979,10975],
		[2980,10979],
		[2981,10983],
		[2982,10987],
		[2983,10992],
		[2984,10996],
		[2985,11000],
		[2986,11005],
		[2987,11009],
		[2988,11013],
		[2989,11017],
		[2990,11022],
		[2991,11026],
		[2992,11030],
		[2993,11034],
		[2994,11039],
		[2995,11043],
		[2996,11047],
		[2997,11052],
		[2998,11056],
		[2999,11060],
		[3000,11064],
		[3001,11069],
		[3002,11073],
		[3003,11077],
		[3004,11082],
		[3005,11086],
		[3006,11090],
		[3007,11094],
		[3008,11099],
		[3009,11103],
		[3010,11107],
		[3011,11111],
		[3012,11116],
		[3013,11120],
		[3014,11124],
		[3015,11129],
		[3016,11133],
		[3017,11137],
		[3018,11141],
		[3019,11146],
		[3020,11150],
		[3021,11154],
		[3022,11158],
		[3023,11163],
		[3024,11167],
		[3025,11171],
		[3026,11176],
		[3027,11180],
		[3028,11184],
		[3029,11188],
		[3030,11193],
		[3031,11197],
		[3032,11201],
		[3033,11206],
		[3034,11210],
		[3035,11214],
		[3036,11218],
		[3037,11223],
		[3038,11227],
		[3039,11231],
		[3040,11235],
		[3041,11240],
		[3042,11244],
		[3043,11248],
		[3044,11253],
		[3045,11257],
		[3046,11261],
		[3047,11265],
		[3048,11270],
		[3049,11274],
		[3050,11278],
		[3051,11282],
		[3052,11287],
		[3053,11291],
		[3054,11295],
		[3055,11300],
		[3056,11304],
		[3057,11308],
		[3058,11312],
		[3059,11317],
		[3060,11321],
		[3061,11325],
		[3062,11330],
		[3063,11334],
		[3064,11338],
		[3065,11342],
		[3066,11347],
		[3067,11351],
		[3068,11355],
		[3069,11359],
		[3070,11364],
		[3071,11368],
		[3072,11372],
		[3073,11377],
		[3074,11381],
		[3075,11385],
		[3076,11389],
		[3077,11394],
		[3078,11398],
		[3079,11402],
		[3080,11406],
		[3081,11411],
		[3082,11415],
		[3083,11419],
		[3084,11424],
		[3085,11428],
		[3086,11432],
		[3087,11436],
		[3088,11441],
		[3089,11445],
		[3090,11449],
		[3091,11454],
		[3092,11458],
		[3093,11462],
		[3094,11466],
		[3095,11471],
		[3096,11475],
		[3097,11479],
		[3098,11483],
		[3099,11488],
		[3100,11492],
		[3101,11496],
		[3102,11501],
		[3103,11505],
		[3104,11509],
		[3105,11513],
		[3106,11518],
		[3107,11522],
		[3108,11526],
		[3109,11530],
		[3110,11535],
		[3111,11539],
		[3112,11543],
		[3113,11548],
		[3114,11552],
		[3115,11556],
		[3116,11560],
		[3117,11565],
		[3118,11569],
		[3119,11573],
		[3120,11578],
		[3121,11582],
		[3122,11586],
		[3123,11590],
		[3124,11595],
		[3125,11599],
		[3126,11603],
		[3127,11607],
		[3128,11612],
		[3129,11616],
		[3130,11620],
		[3131,11625],
		[3132,11629],
		[3133,11633],
		[3134,11637],
		[3135,11642],
		[3136,11646],
		[3137,11650],
		[3138,11655],
		[3139,11659],
		[3140,11663],
		[3141,11667],
		[3142,11672],
		[3143,11676],
		[3144,11680],
		[3145,11684],
		[3146,11689],
		[3147,11693],
		[3148,11697],
		[3149,11702],
		[3150,11706],
		[3151,11710],
		[3152,11714],
		[3153,11719],
		[3154,11723],
		[3155,11727],
		[3156,11731],
		[3157,11736],
		[3158,11740],
		[3159,11744],
		[3160,11749],
		[3161,11753],
		[3162,11757],
		[3163,11761],
		[3164,11766],
		[3165,11770],
		[3166,11774],
		[3167,11779],
		[3168,11783],
		[3169,11787],
		[3170,11791],
		[3171,11796],
		[3172,11800],
		[3173,11804],
		[3174,11808],
		[3175,11813],
		[3176,11817],
		[3177,11821],
		[3178,11826],
		[3179,11830],
		[3180,11834],
		[3181,11838],
		[3182,11843],
		[3183,11847],
		[3184,11851],
		[3185,11855],
		[3186,11860],
		[3187,11864],
		[3188,11868],
		[3189,11873],
		[3190,11877],
		[3191,11881],
		[3192,11885],
		[3193,11890],
		[3194,11894],
		[3195,11898],
		[3196,11903],
		[3197,11907],
		[3198,11911],
		[3199,11915],
		[3200,11920],
		[3201,11924],
		[3202,11928],
		[3203,11932],
		[3204,11937],
		[3205,11941],
		[3206,11945],
		[3207,11950],
		[3208,11954],
		[3209,11958],
		[3210,11962],
		[3211,11967],
		[3212,11971],
		[3213,11975],
		[3214,11979],
		[3215,11984],
		[3216,11988],
		[3217,11992],
		[3218,11997],
		[3219,12001],
		[3220,12005],
		[3221,12009],
		[3222,12014],
		[3223,12018],
		[3224,12022],
		[3225,12027],
		[3226,12031],
		[3227,12035],
		[3228,12039],
		[3229,12044],
		[3230,12048],
		[3231,12052],
		[3232,12056],
		[3233,12061],
		[3234,12065],
		[3235,12069],
		[3236,12074],
		[3237,12078],
		[3238,12082],
		[3239,12086],
		[3240,12091],
		[3241,12095],
		[3242,12099],
		[3243,12103],
		[3244,12108],
		[3245,12112],
		[3246,12116],
		[3247,12121],
		[3248,12125],
		[3249,12129],
		[3250,12133],
		[3251,12138],
		[3252,12142],
		[3253,12146],
		[3254,12151],
		[3255,12155],
		[3256,12159],
		[3257,12163],
		[3258,12168],
		[3259,12172],
		[3260,12176],
		[3261,12180],
		[3262,12185],
		[3263,12189],
		[3264,12193],
		[3265,12198],
		[3266,12202],
		[3267,12206],
		[3268,12210],
		[3269,12215],
		[3270,12219],
		[3271,12223],
		[3272,12227],
		[3273,12232],
		[3274,12236],
		[3275,12240],
		[3276,12245],
		[3277,12249],
		[3278,12253],
		[3279,12257],
		[3280,12262],
		[3281,12266],
		[3282,12270],
		[3283,12275],
		[3284,12279],
		[3285,12283],
		[3286,12287],
		[3287,12292],
		[3288,12296],
		[3289,12300],
		[3290,12304],
		[3291,12309],
		[3292,12313],
		[3293,12317],
		[3294,12322],
		[3295,12326],
		[3296,12330],
		[3297,12334],
		[3298,12339],
		[3299,12343],
		[3300,12347],
		[3301,12351],
		[3302,12356],
		[3303,12360],
		[3304,12364],
		[3305,12369],
		[3306,12373],
		[3307,12377],
		[3308,12381],
		[3309,12386],
		[3310,12390],
		[3311,12394],
		[3312,12399],
		[3313,12403],
		[3314,12407],
		[3315,12411],
		[3316,12416],
		[3317,12420],
		[3318,12424],
		[3319,12428],
		[3320,12433],
		[3321,12437],
		[3322,12441],
		[3323,12446],
		[3324,12450],
		[3325,12454],
		[3326,12458],
		[3327,12463],
		[3328,12467],
		[3329,12471],
		[3330,12475],
		[3331,12480],
		[3332,12484],
		[3333,12488],
		[3334,12493],
		[3335,12497],
		[3336,12501],
		[3337,12505],
		[3338,12510],
		[3339,12514],
		[3340,12518],
		[3341,12523],
		[3342,12527],
		[3343,12531],
		[3344,12535],
		[3345,12540],
		[3346,12544],
		[3347,12548],
		[3348,12552],
		[3349,12557],
		[3350,12561],
		[3351,12565],
		[3352,12570],
		[3353,12574],
		[3354,12578],
		[3355,12582],
		[3356,12587],
		[3357,12591],
		[3358,12595],
		[3359,12599],
		[3360,12604],
		[3361,12608],
		[3362,12612],
		[3363,12617],
		[3364,12621],
		[3365,12625],
		[3366,12629],
		[3367,12634],
		[3368,12638],
		[3369,12642],
		[3370,12647],
		[3371,12651],
		[3372,12655],
		[3373,12659],
		[3374,12664],
		[3375,12668],
		[3376,12672],
		[3377,12676],
		[3378,12681],
		[3379,12685],
		[3380,12689],
		[3381,12694],
		[3382,12698],
		[3383,12702],
		[3384,12706],
		[3385,12711],
		[3386,12715],
		[3387,12719],
		[3388,12723],
		[3389,12726]
	]
}
