{
	"NitMapLcm": {
		"section": [
			[7.979954355,-10.34875593],
			[7.714680265,-9.506098455],
			[7.45520807,-8.278268242],
			[7.284032867,-6.480961137],
			[7.190052402,-4.965191561],
			[7.155280597,-4.080353801],
			[7.145267999,-3.734606883],
			[7.133903366,-3.100414786],
			[7.167179865,-5.251243949],
			[7.196231714,-7.882955408],
			[7.340310939,-22.2960791],
			[7.593824526,-73.14502322],
			[8.059959953,-203.7779849]
		],
		"sectionkeypoint": [3.176554,4.73203,10.49981,16.12856,25.44699,34.53119,55.80401,64.63508,90.58671,100.0361,200.5768,280.2468,462.3817]
	},
	"LcmMapNit": [
		[0,0.001239],
		[1,0.001344],
		[2,1.507101],
		[3,1.652833],
		[4,1.781317],
		[5,1.91404],
		[6,2.038793],
		[7,2.164178],
		[8,2.290844],
		[9,2.414289],
		[10,2.549984],
		[11,2.668604],
		[12,2.793124],
		[13,2.923145],
		[14,3.047609],
		[15,3.176554],
		[16,3.30433],
		[17,3.430145],
		[18,3.55903],
		[19,3.691789],
		[20,3.825131],
		[21,3.95262],
		[22,4.073483],
		[23,4.211849],
		[24,4.336676],
		[25,4.47579],
		[26,4.60177],
		[27,4.73203],
		[28,4.87122],
		[29,4.996274],
		[30,5.128144],
		[31,5.262654],
		[32,5.392922],
		[33,5.528136],
		[34,5.657567],
		[35,5.788009],
		[36,5.919247],
		[37,6.052124],
		[38,6.188919],
		[39,6.321185],
		[40,6.450005],
		[41,6.594849],
		[42,6.724037],
		[43,6.861176],
		[44,6.985402],
		[45,7.118925],
		[46,7.249035],
		[47,7.385083],
		[48,7.529919],
		[49,7.660579],
		[50,7.785241],
		[51,7.92376],
		[52,8.059592],
		[53,8.198229],
		[54,8.33517],
		[55,8.456075],
		[56,8.600474],
		[57,8.731842],
		[58,8.860135],
		[59,9.008251],
		[60,9.139596],
		[61,9.275502],
		[62,9.402603],
		[63,9.54867],
		[64,9.687182],
		[65,9.819247],
		[66,9.952309],
		[67,10.0947],
		[68,10.22511],
		[69,10.3676],
		[70,10.49981],
		[71,10.63606],
		[72,10.77615],
		[73,10.91618],
		[74,11.04492],
		[75,11.1849],
		[76,11.31985],
		[77,11.45395],
		[78,11.59206],
		[79,11.72876],
		[80,11.86268],
		[81,12.0008],
		[82,12.13883],
		[83,12.27011],
		[84,12.41316],
		[85,12.54371],
		[86,12.68679],
		[87,12.82424],
		[88,12.96928],
		[89,13.092],
		[90,13.24071],
		[91,13.37196],
		[92,13.5058],
		[93,13.6433],
		[94,13.78649],
		[95,13.93351],
		[96,14.06107],
		[97,14.19707],
		[98,14.33821],
		[99,14.47857],
		[100,14.61279],
		[101,14.75502],
		[102,14.88896],
		[103,15.02634],
		[104,15.17076],
		[105,15.30497],
		[106,15.44414],
		[107,15.57641],
		[108,15.71832],
		[109,15.86571],
		[110,15.98623],
		[111,16.12856],
		[112,16.27697],
		[113,16.40847],
		[114,16.54308],
		[115,16.69305],
		[116,16.82707],
		[117,16.96727],
		[118,17.09493],
		[119,17.24743],
		[120,17.37387],
		[121,17.51626],
		[122,17.65626],
		[123,17.7894],
		[124,17.92366],
		[125,18.06347],
		[126,18.21002],
		[127,18.35887],
		[128,18.48726],
		[129,18.62482],
		[130,18.76508],
		[131,18.90484],
		[132,19.0431],
		[133,19.17843],
		[134,19.31163],
		[135,19.45303],
		[136,19.59283],
		[137,19.74171],
		[138,19.86796],
		[139,20.00098],
		[140,20.14951],
		[141,20.28219],
		[142,20.42323],
		[143,20.56626],
		[144,20.70301],
		[145,20.83518],
		[146,20.98486],
		[147,21.1187],
		[148,21.26538],
		[149,21.39306],
		[150,21.54149],
		[151,21.6796],
		[152,21.81753],
		[153,21.9607],
		[154,22.0979],
		[155,22.23379],
		[156,22.37843],
		[157,22.5202],
		[158,22.6577],
		[159,22.7966],
		[160,22.93231],
		[161,23.07905],
		[162,23.21358],
		[163,23.34748],
		[164,23.49219],
		[165,23.63174],
		[166,23.7735],
		[167,23.90923],
		[168,24.04782],
		[169,24.17001],
		[170,24.31513],
		[171,24.47078],
		[172,24.60733],
		[173,24.73857],
		[174,24.87802],
		[175,25.02994],
		[176,25.16863],
		[177,25.30295],
		[178,25.44699],
		[179,25.58532],
		[180,25.71619],
		[181,25.85807],
		[182,26.00428],
		[183,26.1444],
		[184,26.27947],
		[185,26.41785],
		[186,26.55302],
		[187,26.69014],
		[188,26.84148],
		[189,26.984],
		[190,27.11583],
		[191,27.26343],
		[192,27.39264],
		[193,27.54037],
		[194,27.67626],
		[195,27.81274],
		[196,27.95841],
		[197,28.10142],
		[198,28.22911],
		[199,28.38559],
		[200,28.50859],
		[201,28.65528],
		[202,28.79408],
		[203,28.91835],
		[204,29.078],
		[205,29.20771],
		[206,29.35313],
		[207,29.49705],
		[208,29.63301],
		[209,29.76927],
		[210,29.92003],
		[211,30.05659],
		[212,30.19476],
		[213,30.32504],
		[214,30.46223],
		[215,30.60093],
		[216,30.74252],
		[217,30.87812],
		[218,31.01997],
		[219,31.16235],
		[220,31.30715],
		[221,31.44564],
		[222,31.58744],
		[223,31.72911],
		[224,31.85896],
		[225,32.00166],
		[226,32.14984],
		[227,32.28834],
		[228,32.42855],
		[229,32.56515],
		[230,32.70441],
		[231,32.84234],
		[232,32.98662],
		[233,33.12511],
		[234,33.26123],
		[235,33.41814],
		[236,33.55237],
		[237,33.69096],
		[238,33.82918],
		[239,33.97683],
		[240,34.10955],
		[241,34.24737],
		[242,34.39408],
		[243,34.53119],
		[244,34.671],
		[245,34.80634],
		[246,34.94537],
		[247,35.08559],
		[248,35.22449],
		[249,35.37197],
		[250,35.49754],
		[251,35.6321],
		[252,35.78018],
		[253,35.92488],
		[254,36.05328],
		[255,36.20631],
		[256,36.34313],
		[257,36.48957],
		[258,36.62305],
		[259,36.77098],
		[260,36.91353],
		[261,37.05128],
		[262,37.19583],
		[263,37.34017],
		[264,37.47211],
		[265,37.61],
		[266,37.76452],
		[267,37.88309],
		[268,38.02858],
		[269,38.17207],
		[270,38.31239],
		[271,38.44609],
		[272,38.58559],
		[273,38.73542],
		[274,38.86937],
		[275,39.01093],
		[276,39.14581],
		[277,39.29945],
		[278,39.4369],
		[279,39.58872],
		[280,39.71063],
		[281,39.86349],
		[282,39.98605],
		[283,40.13884],
		[284,40.28154],
		[285,40.40554],
		[286,40.54173],
		[287,40.68253],
		[288,40.82688],
		[289,40.97425],
		[290,41.12187],
		[291,41.25237],
		[292,41.3901],
		[293,41.53542],
		[294,41.67417],
		[295,41.79473],
		[296,41.94079],
		[297,42.08394],
		[298,42.21938],
		[299,42.36584],
		[300,42.51823],
		[301,42.64717],
		[302,42.77319],
		[303,42.94037],
		[304,43.07721],
		[305,43.2088],
		[306,43.33934],
		[307,43.49778],
		[308,43.63596],
		[309,43.77314],
		[310,43.90854],
		[311,44.05081],
		[312,44.18324],
		[313,44.32533],
		[314,44.47936],
		[315,44.62202],
		[316,44.75472],
		[317,44.89554],
		[318,45.02909],
		[319,45.17367],
		[320,45.32655],
		[321,45.44988],
		[322,45.5952],
		[323,45.72543],
		[324,45.874],
		[325,46.01596],
		[326,46.14486],
		[327,46.29657],
		[328,46.43523],
		[329,46.57713],
		[330,46.71051],
		[331,46.85109],
		[332,46.98116],
		[333,47.13364],
		[334,47.26357],
		[335,47.42505],
		[336,47.55905],
		[337,47.68754],
		[338,47.83316],
		[339,47.9777],
		[340,48.11993],
		[341,48.24524],
		[342,48.38836],
		[343,48.55222],
		[344,48.67942],
		[345,48.83216],
		[346,48.9633],
		[347,49.104],
		[348,49.23153],
		[349,49.36816],
		[350,49.49032],
		[351,49.65726],
		[352,49.79199],
		[353,49.92227],
		[354,50.05429],
		[355,50.21168],
		[356,50.34926],
		[357,50.49415],
		[358,50.63907],
		[359,50.75837],
		[360,50.90173],
		[361,51.04279],
		[362,51.18883],
		[363,51.3507],
		[364,51.47892],
		[365,51.61483],
		[366,51.74777],
		[367,51.89482],
		[368,52.02909],
		[369,52.16138],
		[370,52.31332],
		[371,52.45934],
		[372,52.59535],
		[373,52.73584],
		[374,52.86365],
		[375,53.00772],
		[376,53.14394],
		[377,53.28143],
		[378,53.44028],
		[379,53.57267],
		[380,53.70438],
		[381,53.84266],
		[382,53.9908],
		[383,54.12405],
		[384,54.25555],
		[385,54.41985],
		[386,54.55231],
		[387,54.68961],
		[388,54.83681],
		[389,54.96328],
		[390,55.11086],
		[391,55.26081],
		[392,55.39463],
		[393,55.5255],
		[394,55.66756],
		[395,55.80401],
		[396,55.92583],
		[397,56.08836],
		[398,56.24131],
		[399,56.36199],
		[400,56.51678],
		[401,56.64499],
		[402,56.79242],
		[403,56.92087],
		[404,57.07007],
		[405,57.20172],
		[406,57.35006],
		[407,57.47586],
		[408,57.62492],
		[409,57.78637],
		[410,57.92785],
		[411,58.04224],
		[412,58.18777],
		[413,58.34075],
		[414,58.47473],
		[415,58.59942],
		[416,58.75181],
		[417,58.89288],
		[418,59.03095],
		[419,59.17638],
		[420,59.30687],
		[421,59.45935],
		[422,59.5969],
		[423,59.73097],
		[424,59.87715],
		[425,60.01871],
		[426,60.15928],
		[427,60.28801],
		[428,60.43023],
		[429,60.57804],
		[430,60.70321],
		[431,60.86052],
		[432,60.99355],
		[433,61.13966],
		[434,61.27866],
		[435,61.42613],
		[436,61.55231],
		[437,61.68448],
		[438,61.8351],
		[439,61.98874],
		[440,62.11547],
		[441,62.25745],
		[442,62.41214],
		[443,62.53564],
		[444,62.67789],
		[445,62.82416],
		[446,62.95776],
		[447,63.0893],
		[448,63.23067],
		[449,63.36764],
		[450,63.53553],
		[451,63.66221],
		[452,63.79792],
		[453,63.94141],
		[454,64.09164],
		[455,64.22491],
		[456,64.36671],
		[457,64.5244],
		[458,64.63508],
		[459,64.778],
		[460,64.93348],
		[461,65.06425],
		[462,65.1943],
		[463,65.33616],
		[464,65.45557],
		[465,65.60971],
		[466,65.76688],
		[467,65.88574],
		[468,66.02136],
		[469,66.17806],
		[470,66.29977],
		[471,66.4688],
		[472,66.61539],
		[473,66.75822],
		[474,66.88351],
		[475,67.02102],
		[476,67.15343],
		[477,67.28796],
		[478,67.43648],
		[479,67.57158],
		[480,67.71756],
		[481,67.85197],
		[482,67.99129],
		[483,68.13427],
		[484,68.27019],
		[485,68.4325],
		[486,68.55505],
		[487,68.71077],
		[488,68.8186],
		[489,68.98764],
		[490,69.11483],
		[491,69.25346],
		[492,69.41118],
		[493,69.55078],
		[494,69.68069],
		[495,69.81949],
		[496,69.95329],
		[497,70.0821],
		[498,70.22746],
		[499,70.35892],
		[500,70.5091],
		[501,70.66265],
		[502,70.78348],
		[503,70.93387],
		[504,71.062],
		[505,71.21194],
		[506,71.35088],
		[507,71.51881],
		[508,71.6347],
		[509,71.78205],
		[510,71.918],
		[511,72.05766],
		[512,72.19149],
		[513,72.34201],
		[514,72.48212],
		[515,72.60472],
		[516,72.74157],
		[517,72.88371],
		[518,73.04044],
		[519,73.16401],
		[520,73.30691],
		[521,73.45293],
		[522,73.60216],
		[523,73.72061],
		[524,73.87666],
		[525,74.00856],
		[526,74.14122],
		[527,74.28549],
		[528,74.42016],
		[529,74.56839],
		[530,74.71323],
		[531,74.85973],
		[532,74.98429],
		[533,75.14272],
		[534,75.25797],
		[535,75.40527],
		[536,75.54182],
		[537,75.69437],
		[538,75.81038],
		[539,75.98969],
		[540,76.11028],
		[541,76.24271],
		[542,76.39158],
		[543,76.51795],
		[544,76.66898],
		[545,76.81307],
		[546,76.94246],
		[547,77.08626],
		[548,77.20396],
		[549,77.36728],
		[550,77.51382],
		[551,77.6417],
		[552,77.77995],
		[553,77.91267],
		[554,78.05215],
		[555,78.19651],
		[556,78.34428],
		[557,78.48156],
		[558,78.61039],
		[559,78.75667],
		[560,78.91225],
		[561,79.05757],
		[562,79.18961],
		[563,79.33625],
		[564,79.46639],
		[565,79.62012],
		[566,79.75679],
		[567,79.87698],
		[568,80.03439],
		[569,80.14893],
		[570,80.28349],
		[571,80.44314],
		[572,80.57211],
		[573,80.70634],
		[574,80.84584],
		[575,81.00388],
		[576,81.14179],
		[577,81.24892],
		[578,81.40178],
		[579,81.53485],
		[580,81.68145],
		[581,81.83038],
		[582,81.9615],
		[583,82.09492],
		[584,82.22282],
		[585,82.37724],
		[586,82.52153],
		[587,82.65804],
		[588,82.81565],
		[589,82.95692],
		[590,83.07985],
		[591,83.21233],
		[592,83.35754],
		[593,83.51835],
		[594,83.64737],
		[595,83.78143],
		[596,83.9443],
		[597,84.07655],
		[598,84.1882],
		[599,84.32243],
		[600,84.48504],
		[601,84.62848],
		[602,84.76039],
		[603,84.91303],
		[604,85.02975],
		[605,85.18106],
		[606,85.32472],
		[607,85.43185],
		[608,85.57708],
		[609,85.73811],
		[610,85.85041],
		[611,86.02075],
		[612,86.13516],
		[613,86.28493],
		[614,86.41598],
		[615,86.57829],
		[616,86.69405],
		[617,86.87519],
		[618,86.9798],
		[619,87.14042],
		[620,87.26078],
		[621,87.42171],
		[622,87.5658],
		[623,87.68497],
		[624,87.83318],
		[625,87.97379],
		[626,88.12578],
		[627,88.25325],
		[628,88.38419],
		[629,88.54612],
		[630,88.65155],
		[631,88.77714],
		[632,88.91892],
		[633,89.05781],
		[634,89.19536],
		[635,89.36426],
		[636,89.51271],
		[637,89.61755],
		[638,89.76601],
		[639,89.89957],
		[640,90.03509],
		[641,90.17713],
		[642,90.29703],
		[643,90.45603],
		[644,90.58671],
		[645,90.71968],
		[646,90.88035],
		[647,90.99456],
		[648,91.13728],
		[649,91.25249],
		[650,91.43702],
		[651,91.57008],
		[652,91.7088],
		[653,91.84055],
		[654,92.00169],
		[655,92.11407],
		[656,92.245],
		[657,92.40855],
		[658,92.52644],
		[659,92.67252],
		[660,92.81844],
		[661,92.95778],
		[662,93.07876],
		[663,93.25294],
		[664,93.32934],
		[665,93.52087],
		[666,93.66087],
		[667,93.78148],
		[668,93.90889],
		[669,94.06356],
		[670,94.19881],
		[671,94.33806],
		[672,94.4529],
		[673,94.63687],
		[674,94.77039],
		[675,94.90657],
		[676,95.01052],
		[677,95.1879],
		[678,95.3121],
		[679,95.4695],
		[680,95.62265],
		[681,95.74484],
		[682,95.86398],
		[683,96.01132],
		[684,96.15093],
		[685,96.2702],
		[686,96.42673],
		[687,96.55059],
		[688,96.70054],
		[689,96.81974],
		[690,96.97255],
		[691,97.11419],
		[692,97.27853],
		[693,97.39883],
		[694,97.54463],
		[695,97.68642],
		[696,97.79816],
		[697,97.93096],
		[698,98.08079],
		[699,98.22928],
		[700,98.38261],
		[701,98.51619],
		[702,98.63685],
		[703,98.77389],
		[704,98.91894],
		[705,99.06197],
		[706,99.1828],
		[707,99.33733],
		[708,99.47535],
		[709,99.61105],
		[710,99.74689],
		[711,99.88761],
		[712,100.0361],
		[713,100.1798],
		[714,100.2978],
		[715,100.4412],
		[716,100.585],
		[717,100.735],
		[718,100.8417],
		[719,100.9849],
		[720,101.1423],
		[721,101.2373],
		[722,101.4059],
		[723,101.5439],
		[724,101.6839],
		[725,101.8203],
		[726,101.9694],
		[727,102.11],
		[728,102.2338],
		[729,102.3763],
		[730,102.5156],
		[731,102.6533],
		[732,102.7859],
		[733,102.9391],
		[734,103.0501],
		[735,103.2118],
		[736,103.3415],
		[737,103.4696],
		[738,103.6384],
		[739,103.7576],
		[740,103.8913],
		[741,104.0329],
		[742,104.167],
		[743,104.29],
		[744,104.4453],
		[745,104.5922],
		[746,104.7351],
		[747,104.8799],
		[748,104.9905],
		[749,105.1463],
		[750,105.2627],
		[751,105.4169],
		[752,105.5267],
		[753,105.6955],
		[754,105.8369],
		[755,105.9663],
		[756,106.1125],
		[757,106.2515],
		[758,106.388],
		[759,106.5359],
		[760,106.6776],
		[761,106.8024],
		[762,106.9362],
		[763,107.0706],
		[764,107.2009],
		[765,107.348],
		[766,107.4808],
		[767,107.6178],
		[768,107.7944],
		[769,107.9125],
		[770,108.0569],
		[771,108.1911],
		[772,108.3279],
		[773,108.474],
		[774,108.5985],
		[775,108.7317],
		[776,108.878],
		[777,109.0176],
		[778,109.1507],
		[779,109.2759],
		[780,109.4265],
		[781,109.5518],
		[782,109.6956],
		[783,109.8468],
		[784,109.9719],
		[785,110.126],
		[786,110.2608],
		[787,110.3882],
		[788,110.5233],
		[789,110.6827],
		[790,110.7954],
		[791,110.9405],
		[792,111.0694],
		[793,111.2153],
		[794,111.3494],
		[795,111.4771],
		[796,111.6173],
		[797,111.7581],
		[798,111.8896],
		[799,112.0177],
		[800,112.1749],
		[801,112.2955],
		[802,112.4563],
		[803,112.5694],
		[804,112.7353],
		[805,112.8303],
		[806,113.0193],
		[807,113.1433],
		[808,113.2925],
		[809,113.4401],
		[810,113.5672],
		[811,113.691],
		[812,113.8617],
		[813,114.0074],
		[814,114.1039],
		[815,114.2455],
		[816,114.3889],
		[817,114.5436],
		[818,114.6847],
		[819,114.8251],
		[820,114.9342],
		[821,115.0927],
		[822,115.221],
		[823,115.3597],
		[824,115.5034],
		[825,115.6285],
		[826,115.7776],
		[827,115.9028],
		[828,116.0648],
		[829,116.1843],
		[830,116.3389],
		[831,116.4878],
		[832,116.604],
		[833,116.726],
		[834,116.8986],
		[835,117.0087],
		[836,117.1781],
		[837,117.2869],
		[838,117.4168],
		[839,117.5635],
		[840,117.6961],
		[841,117.8478],
		[842,118.0017],
		[843,118.1352],
		[844,118.2531],
		[845,118.3785],
		[846,118.5031],
		[847,118.644],
		[848,118.8154],
		[849,118.9526],
		[850,119.0864],
		[851,119.2393],
		[852,119.3413],
		[853,119.4781],
		[854,119.6404],
		[855,119.7775],
		[856,119.9171],
		[857,120.052],
		[858,120.1624],
		[859,120.3202],
		[860,120.4717],
		[861,120.5944],
		[862,120.7247],
		[863,120.8702],
		[864,121],
		[865,121.1434],
		[866,121.2807],
		[867,121.4207],
		[868,121.5576],
		[869,121.6837],
		[870,121.8309],
		[871,121.9861],
		[872,122.1347],
		[873,122.2416],
		[874,122.3975],
		[875,122.5387],
		[876,122.6616],
		[877,122.8115],
		[878,122.9623],
		[879,123.0765],
		[880,123.2088],
		[881,123.3573],
		[882,123.4913],
		[883,123.6236],
		[884,123.7631],
		[885,123.895],
		[886,124.0266],
		[887,124.1536],
		[888,124.2773],
		[889,124.423],
		[890,124.5699],
		[891,124.7112],
		[892,124.8412],
		[893,124.992],
		[894,125.1021],
		[895,125.2732],
		[896,125.4375],
		[897,125.5316],
		[898,125.6712],
		[899,125.8172],
		[900,125.9262],
		[901,126.0815],
		[902,126.2351],
		[903,126.3589],
		[904,126.513],
		[905,126.6229],
		[906,126.7927],
		[907,126.9239],
		[908,127.0586],
		[909,127.1786],
		[910,127.313],
		[911,127.4475],
		[912,127.5805],
		[913,127.7136],
		[914,127.8888],
		[915,128.0117],
		[916,128.1388],
		[917,128.2906],
		[918,128.4171],
		[919,128.5706],
		[920,128.7259],
		[921,128.8672],
		[922,128.9688],
		[923,129.0815],
		[924,129.2631],
		[925,129.3635],
		[926,129.5373],
		[927,129.688],
		[928,129.8275],
		[929,129.9446],
		[930,130.0751],
		[931,130.2199],
		[932,130.3433],
		[933,130.4547],
		[934,130.632],
		[935,130.7928],
		[936,130.8895],
		[937,131.0123],
		[938,131.1731],
		[939,131.3035],
		[940,131.4337],
		[941,131.5802],
		[942,131.7352],
		[943,131.8529],
		[944,132],
		[945,132.1516],
		[946,132.2908],
		[947,132.4105],
		[948,132.5517],
		[949,132.6939],
		[950,132.8259],
		[951,132.9659],
		[952,133.0975],
		[953,133.2555],
		[954,133.3777],
		[955,133.5003],
		[956,133.6385],
		[957,133.7864],
		[958,133.9101],
		[959,134.0357],
		[960,134.1762],
		[961,134.3313],
		[962,134.4673],
		[963,134.6193],
		[964,134.7203],
		[965,134.8586],
		[966,134.9921],
		[967,135.1436],
		[968,135.2433],
		[969,135.4228],
		[970,135.5685],
		[971,135.689],
		[972,135.7883],
		[973,135.9372],
		[974,136.071],
		[975,136.2042],
		[976,136.3472],
		[977,136.4765],
		[978,136.6335],
		[979,136.7988],
		[980,136.9453],
		[981,137.0804],
		[982,137.1959],
		[983,137.3028],
		[984,137.4958],
		[985,137.5925],
		[986,137.752],
		[987,137.8803],
		[988,138.0177],
		[989,138.1525],
		[990,138.3219],
		[991,138.4354],
		[992,138.5966],
		[993,138.6967],
		[994,138.8317],
		[995,139.0013],
		[996,139.0959],
		[997,139.2383],
		[998,139.3889],
		[999,139.5265],
		[1000,139.6174],
		[1001,139.79],
		[1002,139.9179],
		[1003,140.0603],
		[1004,140.2198],
		[1005,140.3459],
		[1006,140.4817],
		[1007,140.6353],
		[1008,140.7697],
		[1009,140.9039],
		[1010,141.0141],
		[1011,141.1547],
		[1012,141.3092],
		[1013,141.4429],
		[1014,141.5738],
		[1015,141.6888],
		[1016,141.8401],
		[1017,141.9661],
		[1018,142.1325],
		[1019,142.2704],
		[1020,142.4084],
		[1021,142.5294],
		[1022,142.6842],
		[1023,142.7998],
		[1024,142.9445],
		[1025,143.0751],
		[1026,143.2089],
		[1027,143.3711],
		[1028,143.5068],
		[1029,143.6557],
		[1030,143.7591],
		[1031,143.9332],
		[1032,144.0529],
		[1033,144.1831],
		[1034,144.3017],
		[1035,144.441],
		[1036,144.5728],
		[1037,144.7269],
		[1038,144.8593],
		[1039,145.0053],
		[1040,145.1234],
		[1041,145.2676],
		[1042,145.4247],
		[1043,145.5228],
		[1044,145.6361],
		[1045,145.8179],
		[1046,145.946],
		[1047,146.0998],
		[1048,146.2157],
		[1049,146.3771],
		[1050,146.4997],
		[1051,146.6516],
		[1052,146.7849],
		[1053,146.9301],
		[1054,147.0505],
		[1055,147.175],
		[1056,147.3027],
		[1057,147.4419],
		[1058,147.5701],
		[1059,147.7377],
		[1060,147.88],
		[1061,147.98],
		[1062,148.1152],
		[1063,148.2899],
		[1064,148.4082],
		[1065,148.5378],
		[1066,148.684],
		[1067,148.828],
		[1068,148.9684],
		[1069,149.1266],
		[1070,149.2108],
		[1071,149.3591],
		[1072,149.5047],
		[1073,149.6684],
		[1074,149.7924],
		[1075,149.9233],
		[1076,150.0405],
		[1077,150.2138],
		[1078,150.328],
		[1079,150.4921],
		[1080,150.5696],
		[1081,150.7363],
		[1082,150.9129],
		[1083,151.0066],
		[1084,151.1567],
		[1085,151.2715],
		[1086,151.3968],
		[1087,151.5368],
		[1088,151.6841],
		[1089,151.8406],
		[1090,151.918],
		[1091,152.0894],
		[1092,152.2543],
		[1093,152.3556],
		[1094,152.4681],
		[1095,152.6657],
		[1096,152.7823],
		[1097,152.9096],
		[1098,153.0452],
		[1099,153.165],
		[1100,153.3128],
		[1101,153.4426],
		[1102,153.5957],
		[1103,153.7227],
		[1104,153.8544],
		[1105,153.9901],
		[1106,154.1215],
		[1107,154.2568],
		[1108,154.3738],
		[1109,154.5275],
		[1110,154.6766],
		[1111,154.8158],
		[1112,154.9445],
		[1113,155.1057],
		[1114,155.1947],
		[1115,155.3577],
		[1116,155.4782],
		[1117,155.6158],
		[1118,155.7344],
		[1119,155.9201],
		[1120,156.0383],
		[1121,156.1704],
		[1122,156.3092],
		[1123,156.4419],
		[1124,156.5828],
		[1125,156.6783],
		[1126,156.8722],
		[1127,156.9962],
		[1128,157.1151],
		[1129,157.2607],
		[1130,157.4087],
		[1131,157.5339],
		[1132,157.6472],
		[1133,157.7652],
		[1134,157.9232],
		[1135,158.0663],
		[1136,158.2393],
		[1137,158.3448],
		[1138,158.4867],
		[1139,158.5836],
		[1140,158.6992],
		[1141,158.8668],
		[1142,159.0097],
		[1143,159.1672],
		[1144,159.2861],
		[1145,159.3971],
		[1146,159.5471],
		[1147,159.7093],
		[1148,159.8425],
		[1149,159.9604],
		[1150,160.132],
		[1151,160.2359],
		[1152,160.416],
		[1153,160.5405],
		[1154,160.6683],
		[1155,160.816],
		[1156,160.9329],
		[1157,161.0742],
		[1158,161.2061],
		[1159,161.326],
		[1160,161.4683],
		[1161,161.6073],
		[1162,161.708],
		[1163,161.8846],
		[1164,162.0102],
		[1165,162.1429],
		[1166,162.2759],
		[1167,162.4377],
		[1168,162.5583],
		[1169,162.7068],
		[1170,162.8461],
		[1171,162.9662],
		[1172,163.1123],
		[1173,163.1936],
		[1174,163.3922],
		[1175,163.5076],
		[1176,163.663],
		[1177,163.7561],
		[1178,163.9036],
		[1179,164.0581],
		[1180,164.1806],
		[1181,164.321],
		[1182,164.477],
		[1183,164.5843],
		[1184,164.723],
		[1185,164.8698],
		[1186,165.021],
		[1187,165.1046],
		[1188,165.2731],
		[1189,165.4504],
		[1190,165.5591],
		[1191,165.6819],
		[1192,165.8346],
		[1193,165.9718],
		[1194,166.0749],
		[1195,166.2162],
		[1196,166.3604],
		[1197,166.4933],
		[1198,166.6027],
		[1199,166.7689],
		[1200,166.9103],
		[1201,167.023],
		[1202,167.1992],
		[1203,167.2807],
		[1204,167.4479],
		[1205,167.6104],
		[1206,167.6813],
		[1207,167.8688],
		[1208,168.0212],
		[1209,168.1437],
		[1210,168.2875],
		[1211,168.4181],
		[1212,168.5633],
		[1213,168.6583],
		[1214,168.8424],
		[1215,168.9304],
		[1216,169.0853],
		[1217,169.195],
		[1218,169.351],
		[1219,169.4565],
		[1220,169.5798],
		[1221,169.7409],
		[1222,169.8863],
		[1223,170.0256],
		[1224,170.1386],
		[1225,170.2732],
		[1226,170.4121],
		[1227,170.6069],
		[1228,170.7356],
		[1229,170.8559],
		[1230,170.9772],
		[1231,171.1022],
		[1232,171.2574],
		[1233,171.3403],
		[1234,171.5335],
		[1235,171.6721],
		[1236,171.7527],
		[1237,171.9196],
		[1238,172.0532],
		[1239,172.1431],
		[1240,172.3484],
		[1241,172.4692],
		[1242,172.5911],
		[1243,172.7473],
		[1244,172.8212],
		[1245,172.9697],
		[1246,173.1363],
		[1247,173.2962],
		[1248,173.3862],
		[1249,173.5514],
		[1250,173.6898],
		[1251,173.7946],
		[1252,173.9165],
		[1253,174.0539],
		[1254,174.1628],
		[1255,174.2894],
		[1256,174.4776],
		[1257,174.5954],
		[1258,174.743],
		[1259,174.8737],
		[1260,175.0037],
		[1261,175.1288],
		[1262,175.2641],
		[1263,175.3883],
		[1264,175.5324],
		[1265,175.6919],
		[1266,175.8224],
		[1267,175.9485],
		[1268,176.0645],
		[1269,176.2483],
		[1270,176.362],
		[1271,176.5179],
		[1272,176.6701],
		[1273,176.7724],
		[1274,176.9069],
		[1275,177.0376],
		[1276,177.1543],
		[1277,177.3386],
		[1278,177.3912],
		[1279,177.553],
		[1280,177.7005],
		[1281,177.8182],
		[1282,177.9857],
		[1283,178.0923],
		[1284,178.2688],
		[1285,178.3536],
		[1286,178.4949],
		[1287,178.6349],
		[1288,178.7946],
		[1289,178.9121],
		[1290,179.0608],
		[1291,179.1988],
		[1292,179.2972],
		[1293,179.4386],
		[1294,179.5736],
		[1295,179.7173],
		[1296,179.8626],
		[1297,180.0119],
		[1298,180.1362],
		[1299,180.3009],
		[1300,180.4137],
		[1301,180.5505],
		[1302,180.6743],
		[1303,180.8195],
		[1304,180.9576],
		[1305,181.0818],
		[1306,181.2221],
		[1307,181.3625],
		[1308,181.4862],
		[1309,181.6563],
		[1310,181.8026],
		[1311,181.9007],
		[1312,182.0325],
		[1313,182.1499],
		[1314,182.2746],
		[1315,182.4269],
		[1316,182.5642],
		[1317,182.7115],
		[1318,182.8144],
		[1319,182.933],
		[1320,183.1129],
		[1321,183.2322],
		[1322,183.3123],
		[1323,183.4896],
		[1324,183.6307],
		[1325,183.7546],
		[1326,183.888],
		[1327,184.0434],
		[1328,184.1608],
		[1329,184.3306],
		[1330,184.4303],
		[1331,184.5434],
		[1332,184.7492],
		[1333,184.849],
		[1334,184.9763],
		[1335,185.1075],
		[1336,185.2457],
		[1337,185.346],
		[1338,185.4978],
		[1339,185.6327],
		[1340,185.7743],
		[1341,185.9085],
		[1342,186.0302],
		[1343,186.1513],
		[1344,186.2681],
		[1345,186.4446],
		[1346,186.5587],
		[1347,186.7374],
		[1348,186.8666],
		[1349,186.9961],
		[1350,187.1319],
		[1351,187.2194],
		[1352,187.4177],
		[1353,187.5487],
		[1354,187.6487],
		[1355,187.8195],
		[1356,187.9356],
		[1357,188.0839],
		[1358,188.2115],
		[1359,188.3298],
		[1360,188.4713],
		[1361,188.5941],
		[1362,188.7297],
		[1363,188.879],
		[1364,189.0073],
		[1365,189.1363],
		[1366,189.2769],
		[1367,189.4052],
		[1368,189.5232],
		[1369,189.6917],
		[1370,189.8059],
		[1371,189.9606],
		[1372,190.0699],
		[1373,190.2041],
		[1374,190.3385],
		[1375,190.5068],
		[1376,190.6122],
		[1377,190.7083],
		[1378,190.8985],
		[1379,191.0736],
		[1380,191.1934],
		[1381,191.3074],
		[1382,191.4657],
		[1383,191.5639],
		[1384,191.6976],
		[1385,191.8115],
		[1386,191.9343],
		[1387,192.1076],
		[1388,192.2534],
		[1389,192.3701],
		[1390,192.5788],
		[1391,192.6298],
		[1392,192.7511],
		[1393,192.9008],
		[1394,193.0637],
		[1395,193.1734],
		[1396,193.3163],
		[1397,193.4155],
		[1398,193.5328],
		[1399,193.7297],
		[1400,193.8451],
		[1401,193.9888],
		[1402,194.1306],
		[1403,194.2531],
		[1404,194.3907],
		[1405,194.5419],
		[1406,194.7057],
		[1407,194.7991],
		[1408,194.9248],
		[1409,195.0569],
		[1410,195.229],
		[1411,195.3312],
		[1412,195.4697],
		[1413,195.5869],
		[1414,195.7428],
		[1415,195.8798],
		[1416,195.9828],
		[1417,196.1003],
		[1418,196.2757],
		[1419,196.4536],
		[1420,196.4931],
		[1421,196.6284],
		[1422,196.806],
		[1423,196.9466],
		[1424,197.0453],
		[1425,197.2191],
		[1426,197.345],
		[1427,197.478],
		[1428,197.5672],
		[1429,197.7376],
		[1430,197.8536],
		[1431,198.0059],
		[1432,198.1089],
		[1433,198.2542],
		[1434,198.4069],
		[1435,198.5574],
		[1436,198.6731],
		[1437,198.8499],
		[1438,198.9531],
		[1439,199.1048],
		[1440,199.2027],
		[1441,199.3414],
		[1442,199.515],
		[1443,199.5968],
		[1444,199.7642],
		[1445,199.8434],
		[1446,199.9936],
		[1447,200.1145],
		[1448,200.2649],
		[1449,200.4061],
		[1450,200.5768],
		[1451,200.711],
		[1452,200.8166],
		[1453,200.967],
		[1454,201.1086],
		[1455,201.2351],
		[1456,201.3855],
		[1457,201.4734],
		[1458,201.6229],
		[1459,201.7899],
		[1460,201.9372],
		[1461,202.0079],
		[1462,202.1864],
		[1463,202.2826],
		[1464,202.4128],
		[1465,202.6006],
		[1466,202.6982],
		[1467,202.8868],
		[1468,202.9415],
		[1469,203.1169],
		[1470,203.2424],
		[1471,203.3706],
		[1472,203.5407],
		[1473,203.6347],
		[1474,203.7684],
		[1475,203.9227],
		[1476,204.0334],
		[1477,204.1396],
		[1478,204.2854],
		[1479,204.4569],
		[1480,204.5335],
		[1481,204.6881],
		[1482,204.8384],
		[1483,204.9961],
		[1484,205.1512],
		[1485,205.2671],
		[1486,205.4087],
		[1487,205.5163],
		[1488,205.6289],
		[1489,205.7805],
		[1490,205.9337],
		[1491,206.0236],
		[1492,206.1477],
		[1493,206.3103],
		[1494,206.4512],
		[1495,206.5766],
		[1496,206.668],
		[1497,206.8587],
		[1498,206.9732],
		[1499,207.0575],
		[1500,207.2002],
		[1501,207.3688],
		[1502,207.5228],
		[1503,207.6331],
		[1504,207.7382],
		[1505,207.9085],
		[1506,208.0261],
		[1507,208.1769],
		[1508,208.3339],
		[1509,208.4293],
		[1510,208.5871],
		[1511,208.7175],
		[1512,208.8877],
		[1513,208.9682],
		[1514,209.1033],
		[1515,209.2572],
		[1516,209.3834],
		[1517,209.5194],
		[1518,209.6648],
		[1519,209.7517],
		[1520,209.8622],
		[1521,210.0182],
		[1522,210.1679],
		[1523,210.3149],
		[1524,210.4464],
		[1525,210.5932],
		[1526,210.7007],
		[1527,210.8676],
		[1528,210.9846],
		[1529,211.123],
		[1530,211.2268],
		[1531,211.3797],
		[1532,211.4841],
		[1533,211.6385],
		[1534,211.7618],
		[1535,211.8574],
		[1536,212.0134],
		[1537,212.147],
		[1538,212.3095],
		[1539,212.444],
		[1540,212.5516],
		[1541,212.6665],
		[1542,212.8233],
		[1543,212.9445],
		[1544,213.0751],
		[1545,213.2604],
		[1546,213.3905],
		[1547,213.5069],
		[1548,213.6474],
		[1549,213.7592],
		[1550,213.9196],
		[1551,214.092],
		[1552,214.1875],
		[1553,214.3195],
		[1554,214.4868],
		[1555,214.5705],
		[1556,214.7164],
		[1557,214.8319],
		[1558,214.9451],
		[1559,215.0441],
		[1560,215.1973],
		[1561,215.3474],
		[1562,215.4707],
		[1563,215.6353],
		[1564,215.7667],
		[1565,215.8892],
		[1566,216.0323],
		[1567,216.1656],
		[1568,216.2648],
		[1569,216.4278],
		[1570,216.6086],
		[1571,216.717],
		[1572,216.8331],
		[1573,216.9139],
		[1574,217.0711],
		[1575,217.2786],
		[1576,217.3659],
		[1577,217.4725],
		[1578,217.6075],
		[1579,217.8008],
		[1580,217.8651],
		[1581,218.0404],
		[1582,218.2292],
		[1583,218.3185],
		[1584,218.4231],
		[1585,218.5325],
		[1586,218.6946],
		[1587,218.8164],
		[1588,218.99],
		[1589,219.0857],
		[1590,219.2258],
		[1591,219.3655],
		[1592,219.5219],
		[1593,219.6761],
		[1594,219.7615],
		[1595,219.907],
		[1596,220.0466],
		[1597,220.1328],
		[1598,220.2975],
		[1599,220.4546],
		[1600,220.5644],
		[1601,220.6975],
		[1602,220.8293],
		[1603,220.9762],
		[1604,221.1056],
		[1605,221.1841],
		[1606,221.3967],
		[1607,221.5227],
		[1608,221.6415],
		[1609,221.79],
		[1610,221.8878],
		[1611,222.0234],
		[1612,222.1592],
		[1613,222.3249],
		[1614,222.4315],
		[1615,222.5119],
		[1616,222.6736],
		[1617,222.8376],
		[1618,222.9257],
		[1619,223.0725],
		[1620,223.2323],
		[1621,223.3947],
		[1622,223.4813],
		[1623,223.5975],
		[1624,223.748],
		[1625,223.9256],
		[1626,224.0639],
		[1627,224.1226],
		[1628,224.2527],
		[1629,224.3832],
		[1630,224.4964],
		[1631,224.65],
		[1632,224.843],
		[1633,224.9437],
		[1634,225.0772],
		[1635,225.2313],
		[1636,225.3464],
		[1637,225.52],
		[1638,225.6212],
		[1639,225.7657],
		[1640,225.8584],
		[1641,226.0182],
		[1642,226.1567],
		[1643,226.2908],
		[1644,226.4651],
		[1645,226.6165],
		[1646,226.6751],
		[1647,226.8084],
		[1648,226.9361],
		[1649,227.102],
		[1650,227.2034],
		[1651,227.395],
		[1652,227.4913],
		[1653,227.5994],
		[1654,227.7052],
		[1655,227.8658],
		[1656,227.9816],
		[1657,228.0719],
		[1658,228.2328],
		[1659,228.4162],
		[1660,228.5263],
		[1661,228.6412],
		[1662,228.7793],
		[1663,228.9228],
		[1664,229.0674],
		[1665,229.1994],
		[1666,229.3113],
		[1667,229.4724],
		[1668,229.5668],
		[1669,229.7517],
		[1670,229.8217],
		[1671,230.0121],
		[1672,230.1755],
		[1673,230.2427],
		[1674,230.4405],
		[1675,230.5315],
		[1676,230.6622],
		[1677,230.7776],
		[1678,230.9591],
		[1679,231.0422],
		[1680,231.1838],
		[1681,231.3298],
		[1682,231.4398],
		[1683,231.5869],
		[1684,231.7209],
		[1685,231.8233],
		[1686,231.9774],
		[1687,232.1644],
		[1688,232.2382],
		[1689,232.4154],
		[1690,232.4811],
		[1691,232.6465],
		[1692,232.7694],
		[1693,232.9099],
		[1694,233.0507],
		[1695,233.1663],
		[1696,233.2903],
		[1697,233.4203],
		[1698,233.6087],
		[1699,233.7137],
		[1700,233.8524],
		[1701,233.9808],
		[1702,234.0997],
		[1703,234.2819],
		[1704,234.3994],
		[1705,234.4946],
		[1706,234.6624],
		[1707,234.7958],
		[1708,234.8745],
		[1709,235.0414],
		[1710,235.1378],
		[1711,235.2962],
		[1712,235.3786],
		[1713,235.5625],
		[1714,235.6619],
		[1715,235.7973],
		[1716,235.9534],
		[1717,236.0751],
		[1718,236.1978],
		[1719,236.319],
		[1720,236.4312],
		[1721,236.5895],
		[1722,236.7547],
		[1723,236.902],
		[1724,237.0073],
		[1725,237.1732],
		[1726,237.291],
		[1727,237.3894],
		[1728,237.5295],
		[1729,237.6146],
		[1730,237.7726],
		[1731,237.8828],
		[1732,238.0398],
		[1733,238.1351],
		[1734,238.256],
		[1735,238.4559],
		[1736,238.5323],
		[1737,238.6665],
		[1738,238.8069],
		[1739,238.9464],
		[1740,239.1016],
		[1741,239.2793],
		[1742,239.3435],
		[1743,239.4758],
		[1744,239.6109],
		[1745,239.7154],
		[1746,239.8573],
		[1747,240.0066],
		[1748,240.1333],
		[1749,240.2603],
		[1750,240.3866],
		[1751,240.5298],
		[1752,240.6356],
		[1753,240.7503],
		[1754,240.9383],
		[1755,241.0883],
		[1756,241.193],
		[1757,241.3345],
		[1758,241.4537],
		[1759,241.6233],
		[1760,241.6935],
		[1761,241.834],
		[1762,241.9904],
		[1763,242.1608],
		[1764,242.272],
		[1765,242.3016],
		[1766,242.5532],
		[1767,242.6462],
		[1768,242.7407],
		[1769,242.9165],
		[1770,242.9987],
		[1771,243.171],
		[1772,243.3544],
		[1773,243.4732],
		[1774,243.6373],
		[1775,243.7022],
		[1776,243.8112],
		[1777,244.0153],
		[1778,244.0895],
		[1779,244.2581],
		[1780,244.3772],
		[1781,244.5136],
		[1782,244.6166],
		[1783,244.7278],
		[1784,244.9111],
		[1785,245.0375],
		[1786,245.1415],
		[1787,245.3329],
		[1788,245.4568],
		[1789,245.5591],
		[1790,245.6977],
		[1791,245.8201],
		[1792,245.9079],
		[1793,246.0922],
		[1794,246.1475],
		[1795,246.3191],
		[1796,246.4678],
		[1797,246.6057],
		[1798,246.7283],
		[1799,246.8076],
		[1800,246.974],
		[1801,247.1504],
		[1802,247.201],
		[1803,247.4097],
		[1804,247.5336],
		[1805,247.6662],
		[1806,247.8158],
		[1807,247.9209],
		[1808,248.059],
		[1809,248.1613],
		[1810,248.3004],
		[1811,248.4435],
		[1812,248.5593],
		[1813,248.6565],
		[1814,248.8402],
		[1815,248.9792],
		[1816,249.0991],
		[1817,249.2806],
		[1818,249.3845],
		[1819,249.5682],
		[1820,249.687],
		[1821,249.799],
		[1822,249.9011],
		[1823,250.0127],
		[1824,250.2079],
		[1825,250.3413],
		[1826,250.4224],
		[1827,250.5417],
		[1828,250.688],
		[1829,250.8474],
		[1830,251.0168],
		[1831,251.0905],
		[1832,251.2606],
		[1833,251.3517],
		[1834,251.4807],
		[1835,251.6123],
		[1836,251.7825],
		[1837,251.8656],
		[1838,252.0507],
		[1839,252.139],
		[1840,252.33],
		[1841,252.4146],
		[1842,252.5576],
		[1843,252.684],
		[1844,252.8254],
		[1845,252.959],
		[1846,253.1258],
		[1847,253.1879],
		[1848,253.3361],
		[1849,253.4893],
		[1850,253.6172],
		[1851,253.7673],
		[1852,253.8239],
		[1853,253.9437],
		[1854,254.1085],
		[1855,254.3037],
		[1856,254.4161],
		[1857,254.5355],
		[1858,254.6266],
		[1859,254.8134],
		[1860,254.8951],
		[1861,255.0734],
		[1862,255.1512],
		[1863,255.2881],
		[1864,255.4156],
		[1865,255.567],
		[1866,255.7478],
		[1867,255.8026],
		[1868,255.9493],
		[1869,256.1128],
		[1870,256.1751],
		[1871,256.3443],
		[1872,256.4827],
		[1873,256.6173],
		[1874,256.7198],
		[1875,256.8449],
		[1876,256.9874],
		[1877,257.1395],
		[1878,257.2604],
		[1879,257.404],
		[1880,257.4967],
		[1881,257.6563],
		[1882,257.7831],
		[1883,257.9435],
		[1884,258.0673],
		[1885,258.129],
		[1886,258.3161],
		[1887,258.489],
		[1888,258.5733],
		[1889,258.6938],
		[1890,258.8296],
		[1891,259.0013],
		[1892,259.0986],
		[1893,259.1766],
		[1894,259.3497],
		[1895,259.4742],
		[1896,259.5836],
		[1897,259.7513],
		[1898,259.8817],
		[1899,260.0196],
		[1900,260.149],
		[1901,260.2273],
		[1902,260.4908],
		[1903,260.5244],
		[1904,260.6933],
		[1905,260.8387],
		[1906,260.8877],
		[1907,261.0545],
		[1908,261.165],
		[1909,261.2854],
		[1910,261.439],
		[1911,261.5717],
		[1912,261.7206],
		[1913,261.8257],
		[1914,261.9373],
		[1915,262.0882],
		[1916,262.2182],
		[1917,262.4398],
		[1918,262.5584],
		[1919,262.6751],
		[1920,262.7926],
		[1921,262.8717],
		[1922,263.0395],
		[1923,263.1521],
		[1924,263.2676],
		[1925,263.4708],
		[1926,263.6349],
		[1927,263.7012],
		[1928,263.8308],
		[1929,263.9441],
		[1930,264.0835],
		[1931,264.2322],
		[1932,264.3959],
		[1933,264.533],
		[1934,264.5931],
		[1935,264.7911],
		[1936,264.8545],
		[1937,264.9212],
		[1938,265.1028],
		[1939,265.2421],
		[1940,265.4186],
		[1941,265.5092],
		[1942,265.6341],
		[1943,265.8103],
		[1944,265.9379],
		[1945,266.0038],
		[1946,266.1366],
		[1947,266.2639],
		[1948,266.4402],
		[1949,266.5378],
		[1950,266.6477],
		[1951,266.7357],
		[1952,266.8629],
		[1953,267.0362],
		[1954,267.1537],
		[1955,267.3064],
		[1956,267.4655],
		[1957,267.4774],
		[1958,267.6348],
		[1959,267.8167],
		[1960,268.0207],
		[1961,268.0587],
		[1962,268.2139],
		[1963,268.3635],
		[1964,268.4671],
		[1965,268.5836],
		[1966,268.7371],
		[1967,268.9069],
		[1968,268.9561],
		[1969,269.115],
		[1970,269.2166],
		[1971,269.3539],
		[1972,269.5144],
		[1973,269.6096],
		[1974,269.7693],
		[1975,269.9192],
		[1976,270.0434],
		[1977,270.1162],
		[1978,270.2608],
		[1979,270.3795],
		[1980,270.547],
		[1981,270.6774],
		[1982,270.8532],
		[1983,270.9526],
		[1984,271.0399],
		[1985,271.2405],
		[1986,271.3831],
		[1987,271.4526],
		[1988,271.5514],
		[1989,271.8016],
		[1990,271.928],
		[1991,271.9719],
		[1992,272.1598],
		[1993,272.2088],
		[1994,272.3629],
		[1995,272.4995],
		[1996,272.6025],
		[1997,272.7592],
		[1998,272.9524],
		[1999,273.0504],
		[2000,273.1485],
		[2001,273.3513],
		[2002,273.449],
		[2003,273.5515],
		[2004,273.6888],
		[2005,273.8462],
		[2006,273.9427],
		[2007,274.0489],
		[2008,274.1804],
		[2009,274.309],
		[2010,274.5089],
		[2011,274.5694],
		[2012,274.7703],
		[2013,274.8862],
		[2014,275.0138],
		[2015,275.0604],
		[2016,275.2529],
		[2017,275.364],
		[2018,275.4955],
		[2019,275.5864],
		[2020,275.7138],
		[2021,275.891],
		[2022,276.0151],
		[2023,276.1818],
		[2024,276.3023],
		[2025,276.4568],
		[2026,276.5777],
		[2027,276.7467],
		[2028,276.8057],
		[2029,276.9709],
		[2030,277.0439],
		[2031,277.2029],
		[2032,277.3757],
		[2033,277.4997],
		[2034,277.6145],
		[2035,277.7268],
		[2036,277.8294],
		[2037,277.9997],
		[2038,278.1143],
		[2039,278.2689],
		[2040,278.3755],
		[2041,278.4972],
		[2042,278.6629],
		[2043,278.7651],
		[2044,278.8891],
		[2045,279.0288],
		[2046,279.1448],
		[2047,279.3168],
		[2048,279.4092],
		[2049,279.5129],
		[2050,279.6923],
		[2051,279.8132],
		[2052,279.9448],
		[2053,280.0914],
		[2054,280.1747],
		[2055,280.2468],
		[2056,280.4286],
		[2057,280.561],
		[2058,280.7399],
		[2059,280.8323],
		[2060,280.9127],
		[2061,281.0844],
		[2062,281.1793],
		[2063,281.3199],
		[2064,281.4347],
		[2065,281.6165],
		[2066,281.6886],
		[2067,281.8623],
		[2068,281.9816],
		[2069,282.0744],
		[2070,282.1674],
		[2071,282.3442],
		[2072,282.4736],
		[2073,282.6666],
		[2074,282.7592],
		[2075,282.9086],
		[2076,282.9563],
		[2077,283.157],
		[2078,283.3124],
		[2079,283.4496],
		[2080,283.5716],
		[2081,283.654],
		[2082,283.7859],
		[2083,283.9434],
		[2084,284.0724],
		[2085,284.2026],
		[2086,284.3054],
		[2087,284.4684],
		[2088,284.5506],
		[2089,284.6797],
		[2090,284.8397],
		[2091,284.9602],
		[2092,285.1081],
		[2093,285.2906],
		[2094,285.381],
		[2095,285.4902],
		[2096,285.6146],
		[2097,285.7231],
		[2098,285.8687],
		[2099,285.9921],
		[2100,286.169],
		[2101,286.2779],
		[2102,286.3973],
		[2103,286.5365],
		[2104,286.6546],
		[2105,286.8435],
		[2106,286.9117],
		[2107,287.0515],
		[2108,287.1367],
		[2109,287.3899],
		[2110,287.4897],
		[2111,287.5357],
		[2112,287.7005],
		[2113,287.8089],
		[2114,287.8799],
		[2115,288.0993],
		[2116,288.2451],
		[2117,288.3827],
		[2118,288.4714],
		[2119,288.6279],
		[2120,288.7406],
		[2121,288.8985],
		[2122,289.0029],
		[2123,289.1277],
		[2124,289.2552],
		[2125,289.3656],
		[2126,289.5135],
		[2127,289.6629],
		[2128,289.7504],
		[2129,289.8844],
		[2130,290.0271],
		[2131,290.1845],
		[2132,290.2502],
		[2133,290.4119],
		[2134,290.4946],
		[2135,290.6515],
		[2136,290.7462],
		[2137,290.9262],
		[2138,291.0033],
		[2139,291.1306],
		[2140,291.3332],
		[2141,291.3983],
		[2142,291.571],
		[2143,291.7155],
		[2144,291.8593],
		[2145,291.9971],
		[2146,292.1311],
		[2147,292.2231],
		[2148,292.4267],
		[2149,292.4744],
		[2150,292.6602],
		[2151,292.7546],
		[2152,292.8328],
		[2153,293.0211],
		[2154,293.1359],
		[2155,293.2431],
		[2156,293.3717],
		[2157,293.4633],
		[2158,293.6312],
		[2159,293.7791],
		[2160,293.8968],
		[2161,294.0397],
		[2162,294.2029],
		[2163,294.3],
		[2164,294.4289],
		[2165,294.5367],
		[2166,294.6847],
		[2167,294.8593],
		[2168,294.951],
		[2169,295.0543],
		[2170,295.1492],
		[2171,295.2672],
		[2172,295.4081],
		[2173,295.5651],
		[2174,295.7057],
		[2175,295.8483],
		[2176,295.9448],
		[2177,296.114],
		[2178,296.2259],
		[2179,296.2492],
		[2180,296.4502],
		[2181,296.5808],
		[2182,296.6955],
		[2183,296.8017],
		[2184,296.9207],
		[2185,297.1273],
		[2186,297.285],
		[2187,297.4028],
		[2188,297.5019],
		[2189,297.624],
		[2190,297.7265],
		[2191,297.8865],
		[2192,297.9899],
		[2193,298.1184],
		[2194,298.2459],
		[2195,298.3758],
		[2196,298.5271],
		[2197,298.6158],
		[2198,298.834],
		[2199,298.912],
		[2200,299.0936],
		[2201,299.1904],
		[2202,299.3041],
		[2203,299.4369],
		[2204,299.5378],
		[2205,299.6573],
		[2206,299.803],
		[2207,299.8552],
		[2208,300.0357],
		[2209,300.1725],
		[2210,300.3167],
		[2211,300.4044],
		[2212,300.5604],
		[2213,300.6694],
		[2214,300.8348],
		[2215,300.9649],
		[2216,301.0508],
		[2217,301.2537],
		[2218,301.2981],
		[2219,301.4816],
		[2220,301.5543],
		[2221,301.692],
		[2222,301.8466],
		[2223,301.9142],
		[2224,302.1052],
		[2225,302.1885],
		[2226,302.3109],
		[2227,302.4737],
		[2228,302.6105],
		[2229,302.7437],
		[2230,302.8664],
		[2231,303.042],
		[2232,303.0367],
		[2233,303.2392],
		[2234,303.369],
		[2235,303.5399],
		[2236,303.6641],
		[2237,303.7652],
		[2238,303.9045],
		[2239,304.0411],
		[2240,304.1586],
		[2241,304.2847],
		[2242,304.4356],
		[2243,304.6047],
		[2244,304.6884],
		[2245,304.8538],
		[2246,304.9219],
		[2247,305.0658],
		[2248,305.1802],
		[2249,305.2621],
		[2250,305.4468],
		[2251,305.5568],
		[2252,305.7035],
		[2253,305.7779],
		[2254,305.9697],
		[2255,306.1546],
		[2256,306.1704],
		[2257,306.3192],
		[2258,306.4732],
		[2259,306.7162],
		[2260,306.7807],
		[2261,306.8805],
		[2262,307.0224],
		[2263,307.1787],
		[2264,307.2779],
		[2265,307.4195],
		[2266,307.5122],
		[2267,307.6204],
		[2268,307.7578],
		[2269,307.9155],
		[2270,308.0455],
		[2271,308.1401],
		[2272,308.2594],
		[2273,308.3915],
		[2274,308.5234],
		[2275,308.6241],
		[2276,308.7412],
		[2277,308.974],
		[2278,309.0935],
		[2279,309.1236],
		[2280,309.2239],
		[2281,309.3763],
		[2282,309.5475],
		[2283,309.6373],
		[2284,309.7979],
		[2285,309.9175],
		[2286,310.0276],
		[2287,310.1846],
		[2288,310.2923],
		[2289,310.4128],
		[2290,310.5571],
		[2291,310.7036],
		[2292,310.782],
		[2293,310.9546],
		[2294,311.0138],
		[2295,311.1001],
		[2296,311.2537],
		[2297,311.3905],
		[2298,311.5304],
		[2299,311.6687],
		[2300,311.8441],
		[2301,311.9471],
		[2302,312.0798],
		[2303,312.2346],
		[2304,312.3391],
		[2305,312.4739],
		[2306,312.6049],
		[2307,312.7197],
		[2308,312.8508],
		[2309,312.9438],
		[2310,313.1208],
		[2311,313.1535],
		[2312,313.3749],
		[2313,313.5091],
		[2314,313.6642],
		[2315,313.8037],
		[2316,313.8253],
		[2317,313.9231],
		[2318,314.138],
		[2319,314.1456],
		[2320,314.2616],
		[2321,314.4882],
		[2322,314.6014],
		[2323,314.7285],
		[2324,314.8968],
		[2325,314.9692],
		[2326,315.1212],
		[2327,315.2935],
		[2328,315.4069],
		[2329,315.5267],
		[2330,315.6283],
		[2331,315.7487],
		[2332,315.9269],
		[2333,316.0161],
		[2334,316.1333],
		[2335,316.2811],
		[2336,316.3947],
		[2337,316.5848],
		[2338,316.7101],
		[2339,316.8247],
		[2340,316.9261],
		[2341,317.0213],
		[2342,317.1075],
		[2343,317.2746],
		[2344,317.3727],
		[2345,317.5532],
		[2346,317.6479],
		[2347,317.8044],
		[2348,317.8912],
		[2349,318.0469],
		[2350,318.1878],
		[2351,318.3141],
		[2352,318.4758],
		[2353,318.602],
		[2354,318.7225],
		[2355,318.8672],
		[2356,318.9809],
		[2357,319.0546],
		[2358,319.2477],
		[2359,319.3986],
		[2360,319.5109],
		[2361,319.6226],
		[2362,319.7134],
		[2363,319.9403],
		[2364,319.9697],
		[2365,320.1592],
		[2366,320.2702],
		[2367,320.3714],
		[2368,320.4489],
		[2369,320.5884],
		[2370,320.6907],
		[2371,320.9025],
		[2372,320.9958],
		[2373,321.1319],
		[2374,321.2957],
		[2375,321.3829],
		[2376,321.5008],
		[2377,321.5886],
		[2378,321.7547],
		[2379,321.8507],
		[2380,322.0513],
		[2381,322.1156],
		[2382,322.2769],
		[2383,322.3552],
		[2384,322.5105],
		[2385,322.6483],
		[2386,322.7614],
		[2387,322.881],
		[2388,323.0233],
		[2389,323.1718],
		[2390,323.2797],
		[2391,323.4003],
		[2392,323.4976],
		[2393,323.6195],
		[2394,323.7227],
		[2395,323.8663],
		[2396,323.9763],
		[2397,324.1231],
		[2398,324.2158],
		[2399,324.4762],
		[2400,324.5914],
		[2401,324.6718],
		[2402,324.811],
		[2403,324.9168],
		[2404,325.0008],
		[2405,325.1665],
		[2406,325.3175],
		[2407,325.4675],
		[2408,325.5419],
		[2409,325.6649],
		[2410,325.8349],
		[2411,325.9412],
		[2412,326.0897],
		[2413,326.2062],
		[2414,326.3678],
		[2415,326.4471],
		[2416,326.5742],
		[2417,326.6363],
		[2418,326.7628],
		[2419,326.9707],
		[2420,327.0429],
		[2421,327.1652],
		[2422,327.2792],
		[2423,327.3754],
		[2424,327.6387],
		[2425,327.7007],
		[2426,327.8875],
		[2427,327.964],
		[2428,328.1438],
		[2429,328.2265],
		[2430,328.3836],
		[2431,328.5034],
		[2432,328.5378],
		[2433,328.656],
		[2434,328.8858],
		[2435,328.9924],
		[2436,329.0474],
		[2437,329.2217],
		[2438,329.3144],
		[2439,329.4361],
		[2440,329.6452],
		[2441,329.731],
		[2442,329.9133],
		[2443,330.0204],
		[2444,330.1493],
		[2445,330.2574],
		[2446,330.3784],
		[2447,330.5411],
		[2448,330.6927],
		[2449,330.8348],
		[2450,330.8969],
		[2451,331.0195],
		[2452,331.1552],
		[2453,331.2722],
		[2454,331.3995],
		[2455,331.5857],
		[2456,331.6766],
		[2457,331.8021],
		[2458,331.9038],
		[2459,332.0693],
		[2460,332.1746],
		[2461,332.3221],
		[2462,332.483],
		[2463,332.5169],
		[2464,332.6076],
		[2465,332.8225],
		[2466,332.9544],
		[2467,333.1504],
		[2468,333.1396],
		[2469,333.3278],
		[2470,333.433],
		[2471,333.6016],
		[2472,333.6998],
		[2473,333.8741],
		[2474,334.0278],
		[2475,334.1263],
		[2476,334.3014],
		[2477,334.425],
		[2478,334.5903],
		[2479,334.5755],
		[2480,334.7728],
		[2481,334.9118],
		[2482,334.9959],
		[2483,335.1198],
		[2484,335.2821],
		[2485,335.3991],
		[2486,335.5075],
		[2487,335.6039],
		[2488,335.7152],
		[2489,335.8344],
		[2490,335.9286],
		[2491,336.1333],
		[2492,336.3495],
		[2493,336.3655],
		[2494,336.5388],
		[2495,336.6274],
		[2496,336.8548],
		[2497,336.9385],
		[2498,337.0284],
		[2499,337.2203],
		[2500,337.3427],
		[2501,337.4638],
		[2502,337.4946],
		[2503,337.6024],
		[2504,337.782],
		[2505,337.9261],
		[2506,337.9783],
		[2507,338.144],
		[2508,338.2398],
		[2509,338.4521],
		[2510,338.5982],
		[2511,338.702],
		[2512,338.7809],
		[2513,338.9669],
		[2514,339.1183],
		[2515,339.1914],
		[2516,339.3401],
		[2517,339.4334],
		[2518,339.5393],
		[2519,339.7361],
		[2520,339.8936],
		[2521,339.9085],
		[2522,340.114],
		[2523,340.205],
		[2524,340.3752],
		[2525,340.5143],
		[2526,340.5791],
		[2527,340.7591],
		[2528,340.8631],
		[2529,340.8979],
		[2530,341.0935],
		[2531,341.2405],
		[2532,341.3509],
		[2533,341.5038],
		[2534,341.6071],
		[2535,341.7571],
		[2536,341.7814],
		[2537,341.9726],
		[2538,342.0673],
		[2539,342.1621],
		[2540,342.3593],
		[2541,342.425],
		[2542,342.6237],
		[2543,342.7357],
		[2544,342.8264],
		[2545,343.011],
		[2546,343.1047],
		[2547,343.1936],
		[2548,343.3419],
		[2549,343.4357],
		[2550,343.5916],
		[2551,343.6866],
		[2552,343.8536],
		[2553,343.8968],
		[2554,344.1733],
		[2555,344.2982],
		[2556,344.3775],
		[2557,344.5656],
		[2558,344.7306],
		[2559,344.7743],
		[2560,344.9433],
		[2561,345.0382],
		[2562,345.2032],
		[2563,345.1828],
		[2564,345.3763],
		[2565,345.5116],
		[2566,345.5955],
		[2567,345.7654],
		[2568,345.8692],
		[2569,345.9659],
		[2570,346.1589],
		[2571,346.2606],
		[2572,346.3887],
		[2573,346.5247],
		[2574,346.6514],
		[2575,346.7713],
		[2576,346.8978],
		[2577,346.9655],
		[2578,347.1319],
		[2579,347.3314],
		[2580,347.352],
		[2581,347.502],
		[2582,347.6489],
		[2583,347.8164],
		[2584,347.9796],
		[2585,348.0081],
		[2586,348.1986],
		[2587,348.326],
		[2588,348.4285],
		[2589,348.545],
		[2590,348.6829],
		[2591,348.7636],
		[2592,348.9973],
		[2593,349.0491],
		[2594,349.1765],
		[2595,349.2944],
		[2596,349.3719],
		[2597,349.5269],
		[2598,349.7219],
		[2599,349.8396],
		[2600,349.9238],
		[2601,350.1246],
		[2602,350.2864],
		[2603,350.3849],
		[2604,350.5158],
		[2605,350.622],
		[2606,350.7286],
		[2607,350.905],
		[2608,351.0026],
		[2609,351.1319],
		[2610,351.3116],
		[2611,351.4044],
		[2612,351.5458],
		[2613,351.6199],
		[2614,351.7412],
		[2615,351.8207],
		[2616,351.8983],
		[2617,352.0754],
		[2618,352.2503],
		[2619,352.3694],
		[2620,352.4409],
		[2621,352.6445],
		[2622,352.7249],
		[2623,352.8066],
		[2624,352.938],
		[2625,353.1007],
		[2626,353.2274],
		[2627,353.2851],
		[2628,353.4472],
		[2629,353.4948],
		[2630,353.6777],
		[2631,353.8367],
		[2632,353.9842],
		[2633,354.0568],
		[2634,354.2064],
		[2635,354.4025],
		[2636,354.4703],
		[2637,354.6552],
		[2638,354.7513],
		[2639,354.8594],
		[2640,354.9819],
		[2641,355.1598],
		[2642,355.1887],
		[2643,355.3442],
		[2644,355.5063],
		[2645,355.607],
		[2646,355.6278],
		[2647,355.8054],
		[2648,356.0158],
		[2649,356.0625],
		[2650,356.2006],
		[2651,356.3317],
		[2652,356.5068],
		[2653,356.5932],
		[2654,356.6546],
		[2655,356.8665],
		[2656,357.0075],
		[2657,357.0671],
		[2658,357.2299],
		[2659,357.3565],
		[2660,357.464],
		[2661,357.6248],
		[2662,357.7586],
		[2663,357.8601],
		[2664,357.9805],
		[2665,358.0977],
		[2666,358.1882],
		[2667,358.2851],
		[2668,358.4181],
		[2669,358.6112],
		[2670,358.6295],
		[2671,358.7732],
		[2672,358.8729],
		[2673,359.1281],
		[2674,359.2229],
		[2675,359.3274],
		[2676,359.4547],
		[2677,359.5352],
		[2678,359.6893],
		[2679,359.8627],
		[2680,359.8843],
		[2681,360.0752],
		[2682,360.1505],
		[2683,360.379],
		[2684,360.439],
		[2685,360.491],
		[2686,360.6863],
		[2687,360.7593],
		[2688,360.9874],
		[2689,361.0652],
		[2690,361.2174],
		[2691,361.3715],
		[2692,361.4398],
		[2693,361.5548],
		[2694,361.7531],
		[2695,361.8032],
		[2696,361.9558],
		[2697,362.0461],
		[2698,362.2283],
		[2699,362.3915],
		[2700,362.3984],
		[2701,362.5136],
		[2702,362.7424],
		[2703,362.7989],
		[2704,362.9302],
		[2705,363.0214],
		[2706,363.1415],
		[2707,363.3633],
		[2708,363.3547],
		[2709,363.6116],
		[2710,363.6454],
		[2711,363.8195],
		[2712,364.0086],
		[2713,364.0461],
		[2714,364.1479],
		[2715,364.2947],
		[2716,364.4794],
		[2717,364.5252],
		[2718,364.6067],
		[2719,364.8039],
		[2720,364.8938],
		[2721,365.0883],
		[2722,365.1546],
		[2723,365.3254],
		[2724,365.4099],
		[2725,365.552],
		[2726,365.6501],
		[2727,365.7873],
		[2728,365.8441],
		[2729,366.0732],
		[2730,366.1604],
		[2731,366.2241],
		[2732,366.4302],
		[2733,366.5123],
		[2734,366.61],
		[2735,366.8142],
		[2736,366.9773],
		[2737,367.0868],
		[2738,367.0511],
		[2739,367.2635],
		[2740,367.3719],
		[2741,367.4943],
		[2742,367.6414],
		[2743,367.7827],
		[2744,367.9298],
		[2745,367.9833],
		[2746,368.083],
		[2747,368.3017],
		[2748,368.424],
		[2749,368.5385],
		[2750,368.6337],
		[2751,368.7879],
		[2752,368.9185],
		[2753,369.0326],
		[2754,369.2438],
		[2755,369.3138],
		[2756,369.3615],
		[2757,369.4806],
		[2758,369.6451],
		[2759,369.7428],
		[2760,369.9149],
		[2761,370.0034],
		[2762,370.2012],
		[2763,370.3516],
		[2764,370.4312],
		[2765,370.5561],
		[2766,370.6167],
		[2767,370.8045],
		[2768,370.9756],
		[2769,371.0275],
		[2770,371.2683],
		[2771,371.3242],
		[2772,371.3906],
		[2773,371.4822],
		[2774,371.6281],
		[2775,371.7951],
		[2776,371.9315],
		[2777,372.0029],
		[2778,372.1233],
		[2779,372.1996],
		[2780,372.3864],
		[2781,372.4718],
		[2782,372.6065],
		[2783,372.7785],
		[2784,372.9398],
		[2785,373.0132],
		[2786,373.1731],
		[2787,373.3196],
		[2788,373.483],
		[2789,373.5127],
		[2790,373.641],
		[2791,373.7077],
		[2792,373.9055],
		[2793,373.997],
		[2794,374.0716],
		[2795,374.2289],
		[2796,374.3913],
		[2797,374.4937],
		[2798,374.6371],
		[2799,374.6953],
		[2800,374.8555],
		[2801,374.9637],
		[2802,375.0884],
		[2803,375.1647],
		[2804,375.3714],
		[2805,375.4962],
		[2806,375.6126],
		[2807,375.6674],
		[2808,375.8352],
		[2809,375.8698],
		[2810,376.0249],
		[2811,376.1672],
		[2812,376.3043],
		[2813,376.4812],
		[2814,376.6083],
		[2815,376.7184],
		[2816,376.8112],
		[2817,376.997],
		[2818,377.1343],
		[2819,377.2738],
		[2820,377.3726],
		[2821,377.4479],
		[2822,377.5866],
		[2823,377.7127],
		[2824,377.8521],
		[2825,378.0039],
		[2826,378.046],
		[2827,378.1551],
		[2828,378.2254],
		[2829,378.3933],
		[2830,378.5371],
		[2831,378.6738],
		[2832,378.8051],
		[2833,378.9279],
		[2834,379.1451],
		[2835,379.2292],
		[2836,379.3135],
		[2837,379.4186],
		[2838,379.5008],
		[2839,379.6491],
		[2840,379.8361],
		[2841,379.9019],
		[2842,380.0184],
		[2843,380.1537],
		[2844,380.2944],
		[2845,380.4054],
		[2846,380.5497],
		[2847,380.6518],
		[2848,380.9007],
		[2849,380.9418],
		[2850,381.0644],
		[2851,381.1328],
		[2852,381.3345],
		[2853,381.4194],
		[2854,381.6115],
		[2855,381.6681],
		[2856,381.7551],
		[2857,381.8921],
		[2858,381.951],
		[2859,382.1723],
		[2860,382.3244],
		[2861,382.3466],
		[2862,382.4909],
		[2863,382.6179],
		[2864,382.727],
		[2865,382.9511],
		[2866,382.9155],
		[2867,383.1083],
		[2868,383.2879],
		[2869,383.319],
		[2870,383.4835],
		[2871,383.5081],
		[2872,383.7297],
		[2873,383.7411],
		[2874,383.9033],
		[2875,384.0874],
		[2876,384.2432],
		[2877,384.2767],
		[2878,384.4634],
		[2879,384.5769],
		[2880,384.6575],
		[2881,384.8588],
		[2882,384.9014],
		[2883,385.0659],
		[2884,385.2116],
		[2885,385.3065],
		[2886,385.4602],
		[2887,385.5665],
		[2888,385.6301],
		[2889,385.8669],
		[2890,385.992],
		[2891,386.1171],
		[2892,386.2224],
		[2893,386.3412],
		[2894,386.3513],
		[2895,386.5535],
		[2896,386.7001],
		[2897,386.7749],
		[2898,386.9173],
		[2899,387.0035],
		[2900,387.1393],
		[2901,387.288],
		[2902,387.4211],
		[2903,387.5424],
		[2904,387.6521],
		[2905,387.8351],
		[2906,387.9464],
		[2907,388.0717],
		[2908,388.1635],
		[2909,388.2989],
		[2910,388.4708],
		[2911,388.4928],
		[2912,388.6972],
		[2913,388.7936],
		[2914,388.9612],
		[2915,389.0292],
		[2916,389.2023],
		[2917,389.257],
		[2918,389.3528],
		[2919,389.4909],
		[2920,389.5971],
		[2921,389.79],
		[2922,389.9301],
		[2923,390.0604],
		[2924,390.1444],
		[2925,390.2432],
		[2926,390.4551],
		[2927,390.4828],
		[2928,390.6765],
		[2929,390.736],
		[2930,390.8895],
		[2931,391.0254],
		[2932,391.1866],
		[2933,391.2248],
		[2934,391.3546],
		[2935,391.5321],
		[2936,391.6245],
		[2937,391.7834],
		[2938,391.7967],
		[2939,391.9791],
		[2940,392.0796],
		[2941,392.2467],
		[2942,392.3726],
		[2943,392.5432],
		[2944,392.6355],
		[2945,392.8378],
		[2946,392.8644],
		[2947,393.0614],
		[2948,393.179],
		[2949,393.3042],
		[2950,393.5039],
		[2951,393.6298],
		[2952,393.6033],
		[2953,393.7614],
		[2954,393.944],
		[2955,394.0787],
		[2956,394.1247],
		[2957,394.3274],
		[2958,394.4216],
		[2959,394.5775],
		[2960,394.6955],
		[2961,394.7663],
		[2962,394.8374],
		[2963,394.9846],
		[2964,395.0614],
		[2965,395.2166],
		[2966,395.3527],
		[2967,395.409],
		[2968,395.559],
		[2969,395.675],
		[2970,395.8842],
		[2971,395.999],
		[2972,396.0967],
		[2973,396.2367],
		[2974,396.3318],
		[2975,396.4164],
		[2976,396.6138],
		[2977,396.77],
		[2978,396.8365],
		[2979,396.896],
		[2980,397.1132],
		[2981,397.2069],
		[2982,397.3621],
		[2983,397.4006],
		[2984,397.5907],
		[2985,397.6564],
		[2986,397.7911],
		[2987,397.9485],
		[2988,398.0776],
		[2989,398.159],
		[2990,398.3815],
		[2991,398.3976],
		[2992,398.5333],
		[2993,398.677],
		[2994,398.7665],
		[2995,398.9429],
		[2996,399.0797],
		[2997,399.1279],
		[2998,399.3142],
		[2999,399.3487],
		[3000,399.5481],
		[3001,399.5582],
		[3002,399.8293],
		[3003,399.8601],
		[3004,400.0118],
		[3005,400.102],
		[3006,400.2982],
		[3007,400.3742],
		[3008,400.5292],
		[3009,400.666],
		[3010,400.7506],
		[3011,400.8442],
		[3012,400.9886],
		[3013,401.1732],
		[3014,401.2705],
		[3015,401.3402],
		[3016,401.5079],
		[3017,401.6173],
		[3018,401.7672],
		[3019,401.8876],
		[3020,401.9919],
		[3021,402.1015],
		[3022,402.274],
		[3023,402.3867],
		[3024,402.5414],
		[3025,402.5417],
		[3026,402.6937],
		[3027,402.7844],
		[3028,402.938],
		[3029,403.0884],
		[3030,403.2663],
		[3031,403.4205],
		[3032,403.5082],
		[3033,403.6813],
		[3034,403.8315],
		[3035,403.8846],
		[3036,404.0052],
		[3037,404.1476],
		[3038,404.2378],
		[3039,404.3855],
		[3040,404.6144],
		[3041,404.6396],
		[3042,404.7635],
		[3043,404.8661],
		[3044,405.0647],
		[3045,405.1131],
		[3046,405.341],
		[3047,405.4483],
		[3048,405.5003],
		[3049,405.6438],
		[3050,405.7918],
		[3051,405.9276],
		[3052,405.9843],
		[3053,406.1382],
		[3054,406.158],
		[3055,406.3907],
		[3056,406.5459],
		[3057,406.6197],
		[3058,406.8072],
		[3059,406.8097],
		[3060,406.8791],
		[3061,407.0086],
		[3062,407.2342],
		[3063,407.3358],
		[3064,407.5233],
		[3065,407.4892],
		[3066,407.6749],
		[3067,407.7899],
		[3068,407.95],
		[3069,408.0292],
		[3070,408.1587],
		[3071,408.2848],
		[3072,408.4261],
		[3073,408.5349],
		[3074,408.6196],
		[3075,408.864],
		[3076,408.9673],
		[3077,408.9804],
		[3078,409.1848],
		[3079,409.2463],
		[3080,409.3642],
		[3081,409.4799],
		[3082,409.5926],
		[3083,409.765],
		[3084,409.8168],
		[3085,410.0139],
		[3086,410.0818],
		[3087,410.2228],
		[3088,410.4101],
		[3089,410.4211],
		[3090,410.5883],
		[3091,410.6009],
		[3092,410.7769],
		[3093,410.9317],
		[3094,411.0071],
		[3095,411.2152],
		[3096,411.2768],
		[3097,411.4015],
		[3098,411.5769],
		[3099,411.6431],
		[3100,411.7368],
		[3101,411.8508],
		[3102,412.0335],
		[3103,412.1361],
		[3104,412.2461],
		[3105,412.4004],
		[3106,412.5086],
		[3107,412.6073],
		[3108,412.7781],
		[3109,412.7755],
		[3110,412.9742],
		[3111,413.1018],
		[3112,413.1844],
		[3113,413.3661],
		[3114,413.4481],
		[3115,413.5861],
		[3116,413.7646],
		[3117,413.7829],
		[3118,413.9727],
		[3119,414.1597],
		[3120,414.2716],
		[3121,414.4064],
		[3122,414.4768],
		[3123,414.528],
		[3124,414.6563],
		[3125,414.8061],
		[3126,414.9432],
		[3127,415.1128],
		[3128,415.202],
		[3129,415.3411],
		[3130,415.4297],
		[3131,415.6536],
		[3132,415.7602],
		[3133,415.8679],
		[3134,415.9477],
		[3135,416.1081],
		[3136,416.2427],
		[3137,416.354],
		[3138,416.3867],
		[3139,416.5576],
		[3140,416.5844],
		[3141,416.8159],
		[3142,416.8445],
		[3143,417.0301],
		[3144,417.0669],
		[3145,417.1463],
		[3146,417.2841],
		[3147,417.4449],
		[3148,417.6033],
		[3149,417.7551],
		[3150,417.8652],
		[3151,417.9805],
		[3152,418.1541],
		[3153,418.2166],
		[3154,418.3568],
		[3155,418.4324],
		[3156,418.5912],
		[3157,418.6296],
		[3158,418.7726],
		[3159,418.971],
		[3160,418.9321],
		[3161,419.1953],
		[3162,419.2218],
		[3163,419.4193],
		[3164,419.5585],
		[3165,419.6429],
		[3166,419.7982],
		[3167,419.8736],
		[3168,419.9886],
		[3169,420.0901],
		[3170,420.2314],
		[3171,420.3312],
		[3172,420.4221],
		[3173,420.6736],
		[3174,420.716],
		[3175,420.8621],
		[3176,421.023],
		[3177,421.1048],
		[3178,421.2415],
		[3179,421.344],
		[3180,421.4824],
		[3181,421.5719],
		[3182,421.7136],
		[3183,421.8955],
		[3184,421.8749],
		[3185,422.1133],
		[3186,422.121],
		[3187,422.2756],
		[3188,422.3343],
		[3189,422.3883],
		[3190,422.6246],
		[3191,422.6983],
		[3192,422.8981],
		[3193,423.0073],
		[3194,423.1302],
		[3195,423.2971],
		[3196,423.3618],
		[3197,423.4822],
		[3198,423.6681],
		[3199,423.7258],
		[3200,423.8475],
		[3201,424.0176],
		[3202,424.1132],
		[3203,424.2545],
		[3204,424.4083],
		[3205,424.5259],
		[3206,424.5349],
		[3207,424.6906],
		[3208,424.8719],
		[3209,424.9164],
		[3210,425.0238],
		[3211,425.1963],
		[3212,425.3302],
		[3213,425.4225],
		[3214,425.4867],
		[3215,425.6968],
		[3216,425.8035],
		[3217,425.8141],
		[3218,426.0294],
		[3219,426.1851],
		[3220,426.2905],
		[3221,426.4709],
		[3222,426.564],
		[3223,426.6535],
		[3224,426.8763],
		[3225,426.9156],
		[3226,426.9719],
		[3227,427.1442],
		[3228,427.2307],
		[3229,427.3111],
		[3230,427.4826],
		[3231,427.5903],
		[3232,427.6828],
		[3233,427.7447],
		[3234,427.9934],
		[3235,428.1164],
		[3236,428.2417],
		[3237,428.3476],
		[3238,428.4567],
		[3239,428.5399],
		[3240,428.662],
		[3241,428.8206],
		[3242,428.9908],
		[3243,429.1238],
		[3244,429.3029],
		[3245,429.3264],
		[3246,429.3938],
		[3247,429.5651],
		[3248,429.6338],
		[3249,429.812],
		[3250,429.9585],
		[3251,430.0247],
		[3252,430.2283],
		[3253,430.2819],
		[3254,430.4805],
		[3255,430.606],
		[3256,430.6412],
		[3257,430.8275],
		[3258,430.893],
		[3259,431.051],
		[3260,431.1603],
		[3261,431.3035],
		[3262,431.4217],
		[3263,431.5061],
		[3264,431.6333],
		[3265,431.6925],
		[3266,431.9074],
		[3267,432.0518],
		[3268,432.2069],
		[3269,432.222],
		[3270,432.3264],
		[3271,432.4157],
		[3272,432.607],
		[3273,432.6874],
		[3274,432.8218],
		[3275,432.8907],
		[3276,433.0783],
		[3277,433.2373],
		[3278,433.3283],
		[3279,433.4459],
		[3280,433.6204],
		[3281,433.7379],
		[3282,433.832],
		[3283,433.9557],
		[3284,434.1108],
		[3285,434.149],
		[3286,434.2968],
		[3287,434.5231],
		[3288,434.5117],
		[3289,434.6526],
		[3290,434.7923],
		[3291,434.9584],
		[3292,435.0263],
		[3293,435.1632],
		[3294,435.2545],
		[3295,435.3452],
		[3296,435.4782],
		[3297,435.6362],
		[3298,435.7039],
		[3299,435.8094],
		[3300,435.951],
		[3301,436.1339],
		[3302,436.1816],
		[3303,436.2785],
		[3304,436.4621],
		[3305,436.4909],
		[3306,436.7277],
		[3307,436.7577],
		[3308,436.9375],
		[3309,437.0243],
		[3310,437.0997],
		[3311,437.2505],
		[3312,437.4131],
		[3313,437.4643],
		[3314,437.6636],
		[3315,437.7274],
		[3316,437.8617],
		[3317,438.0089],
		[3318,438.1168],
		[3319,438.2951],
		[3320,438.369],
		[3321,438.5097],
		[3322,438.6707],
		[3323,438.7349],
		[3324,438.8271],
		[3325,438.9602],
		[3326,439.097],
		[3327,439.2202],
		[3328,439.3673],
		[3329,439.3409],
		[3330,439.5711],
		[3331,439.6479],
		[3332,439.6928],
		[3333,439.9037],
		[3334,439.9955],
		[3335,440.0895],
		[3336,440.3109],
		[3337,440.421],
		[3338,440.4471],
		[3339,440.5792],
		[3340,440.7262],
		[3341,440.7509],
		[3342,440.9699],
		[3343,441.0856],
		[3344,441.1734],
		[3345,441.3093],
		[3346,441.4731],
		[3347,441.5475],
		[3348,441.7282],
		[3349,441.8722],
		[3350,441.9592],
		[3351,442.0204],
		[3352,442.1992],
		[3353,442.2693],
		[3354,442.3762],
		[3355,442.5197],
		[3356,442.6527],
		[3357,442.7744],
		[3358,442.8686],
		[3359,442.9858],
		[3360,443.1545],
		[3361,443.3027],
		[3362,443.3736],
		[3363,443.4769],
		[3364,443.5815],
		[3365,443.7864],
		[3366,443.8594],
		[3367,444.0032],
		[3368,444.1202],
		[3369,444.2782],
		[3370,444.338],
		[3371,444.4756],
		[3372,444.5366],
		[3373,444.6873],
		[3374,444.7879],
		[3375,444.9928],
		[3376,444.9999],
		[3377,445.0746],
		[3378,445.2961],
		[3379,445.3997],
		[3380,445.5681],
		[3381,445.5986],
		[3382,445.783],
		[3383,445.8456],
		[3384,445.8854],
		[3385,446.0896],
		[3386,446.1933],
		[3387,446.3763],
		[3388,446.4544],
		[3389,446.6019],
		[3390,446.7086],
		[3391,446.7991],
		[3392,446.9556],
		[3393,447.0183],
		[3394,447.2476],
		[3395,447.2085],
		[3396,447.464],
		[3397,447.5232],
		[3398,447.6805],
		[3399,447.7795],
		[3400,447.8506],
		[3401,447.9986],
		[3402,448.0678],
		[3403,448.2244],
		[3404,448.3993],
		[3405,448.4399],
		[3406,448.5356],
		[3407,448.6883],
		[3408,448.7833],
		[3409,448.9667],
		[3410,449.1497],
		[3411,449.2018],
		[3412,449.305],
		[3413,449.5107],
		[3414,449.5164],
		[3415,449.7237],
		[3416,449.8331],
		[3417,449.8992],
		[3418,449.9751],
		[3419,450.1242],
		[3420,450.2635],
		[3421,450.3614],
		[3422,450.5017],
		[3423,450.6129],
		[3424,450.8475],
		[3425,450.8599],
		[3426,450.9126],
		[3427,451.0074],
		[3428,451.1518],
		[3429,451.2912],
		[3430,451.3784],
		[3431,451.538],
		[3432,451.6676],
		[3433,451.7579],
		[3434,451.9517],
		[3435,452.1429],
		[3436,452.1584],
		[3437,452.3057],
		[3438,452.4341],
		[3439,452.5894],
		[3440,452.5978],
		[3441,452.769],
		[3442,452.7539],
		[3443,452.903],
		[3444,453.0436],
		[3445,453.221],
		[3446,453.3639],
		[3447,453.4344],
		[3448,453.4823],
		[3449,453.612],
		[3450,453.7693],
		[3451,453.9463],
		[3452,454.0624],
		[3453,454.2161],
		[3454,454.3241],
		[3455,454.3681],
		[3456,454.5989],
		[3457,454.6265],
		[3458,454.7878],
		[3459,454.8228],
		[3460,455.1352],
		[3461,455.075],
		[3462,455.2719],
		[3463,455.3926],
		[3464,455.5031],
		[3465,455.6042],
		[3466,455.7439],
		[3467,455.8634],
		[3468,455.9773],
		[3469,456.0357],
		[3470,456.1971],
		[3471,456.3465],
		[3472,456.4363],
		[3473,456.5737],
		[3474,456.6956],
		[3475,456.747],
		[3476,456.9676],
		[3477,457.0605],
		[3478,457.2913],
		[3479,457.352],
		[3480,457.4081],
		[3481,457.4811],
		[3482,457.6624],
		[3483,457.783],
		[3484,457.9082],
		[3485,458.0528],
		[3486,458.1249],
		[3487,458.2948],
		[3488,458.3622],
		[3489,458.4738],
		[3490,458.6356],
		[3491,458.6883],
		[3492,458.8039],
		[3493,459.0313],
		[3494,459.1347],
		[3495,459.1349],
		[3496,459.3055],
		[3497,459.4651],
		[3498,459.5403],
		[3499,459.6707],
		[3500,459.7023],
		[3501,459.8512],
		[3502,460.0123],
		[3503,460.0782],
		[3504,460.1642],
		[3505,460.2828],
		[3506,460.4457],
		[3507,460.5095],
		[3508,460.506],
		[3509,460.8445],
		[3510,460.8446],
		[3511,461.1051],
		[3512,461.2003],
		[3513,461.2668],
		[3514,461.3575],
		[3515,461.5115],
		[3516,461.6197],
		[3517,461.76],
		[3518,461.7939],
		[3519,461.9801],
		[3520,462.1091],
		[3521,462.1147],
		[3522,462.2752],
		[3523,462.3817]
	]
}
