[
	{
        "project":[
            "PD2226F_EX"
        ],
        "ColorMatrixMap":[
		{
			"0x00000030":[15],
			"AlphaMap":[
			0.93
			]
		},
		{
			"0x00000091":[15],
			"AlphaMap":[
			0.88
			]
		},
		{
			"0x00000012":[15],
			"AlphaMap":[
			0.97
			]
		},
		{
			"0x01000030":[15],
			"AlphaMap":[
			0.81
			]
		},
		{
			"0x01000091":[15],
			"AlphaMap":[
			0.90
			]
		},
		{
			"0x01000012":[15],
			"AlphaMap":[
			0.95
			]
		}
        ]
    }
]